{
    "nGauss": 4,
    "mean1": {
        "nParams": 11,
        "func": "([0] + [1]*x) + ((x<[2])*1*([3] + [4]*x + [5]*x*x + [6]*x*x*x + [7]*x*x*x*x + [8]*x*x*x*x*x + [9]*x*x*x*x*x*x + [10]*x*x*x*x*x*x*x) +0+ (x>[2])*1*(  ([4] + 2*[5]*[2] + 3*[6]*[2]*[2] + 4*[7]*[2]*[2]*[2] + 5*[8]*[2]*[2]*[2]*[2] + 6*[9]*[2]*[2]*[2]*[2]*[2] + 7*[10]*[2]*[2]*[2]*[2]*[2]*[2])*x + ([3] + [4]*[2] + [5]*[2]*[2] + [6]*[2]*[2]*[2] + [7]*[2]*[2]*[2]*[2] + [8]*[2]*[2]*[2]*[2]*[2] + [9]*[2]*[2]*[2]*[2]*[2]*[2] + [10]*[2]*[2]*[2]*[2]*[2]*[2]*[2]-([4] + 2*[5]*[2] + 3*[6]*[2]*[2] + 4*[7]*[2]*[2]*[2] + 5*[8]*[2]*[2]*[2]*[2] + 6*[9]*[2]*[2]*[2]*[2]*[2] + 7*[10]*[2]*[2]*[2]*[2]*[2]*[2])*[2]) ))",
        "p0": -4.0604391027618,
        "p0_err": [
            null,
            null
        ],
        "p1": -0.07802222985096378,
        "p1_err": [
            null,
            null
        ],
        "p10": -1.7951290981585812e-12,
        "p10_err": 3.0828816349099884e-15,
        "p10_isCte": false,
        "p9": 4.203380790723302e-10,
        "p9_err": 3.128511381318647e-13,
        "p9_isCte": false,
        "p8": -2.3848192360897457e-08,
        "p8_err": 3.1952812617794644e-11,
        "p8_isCte": false,
        "p7": -1.691689469259317e-06,
        "p7_err": 3.2451816884452367e-09,
        "p7_isCte": false,
        "p6": 0.0002775390214297063,
        "p6_err": 3.1668660423257685e-07,
        "p6_isCte": false,
        "p5": -0.014288104680922849,
        "p5_err": 2.753430601240066e-05,
        "p5_isCte": false,
        "p4": 0.44322705157803904,
        "p4_err": 0.0011545780851496643,
        "p4_isCte": false,
        "p3": 0.05338754249323076,
        "p3_err": 0.012298292856975862,
        "p3_isCte": false,
        "p2": 88.76754051268635,
        "p2_err": 1.01766281882489,
        "p2_isCte": false
    },
    "sigma1": {
        "nParams": 3,
        "func": "[0]*TMath::Power(x, [1]) + [2]",
        "p0": 9.558125074262911,
        "p0_err": [
            null,
            null
        ],
        "p1": 0.47902455434683433,
        "p1_err": [
            null,
            null
        ],
        "p2": 24.1562199881004
    },
    "norm1": {
        "nParams": 1,
        "func": "[0]",
        "p0": 0.00030067587587231156,
        "p0_err": [
            null,
            null
        ]
    },
    "mean2": {
        "nParams": 11,
        "func": "([0] + [1]*x) + ((x<[2])*1*([3] + [4]*x + [5]*x*x + [6]*x*x*x + [7]*x*x*x*x + [8]*x*x*x*x*x + [9]*x*x*x*x*x*x + [10]*x*x*x*x*x*x*x) +0+ (x>[2])*1*(  ([4] + 2*[5]*[2] + 3*[6]*[2]*[2] + 4*[7]*[2]*[2]*[2] + 5*[8]*[2]*[2]*[2]*[2] + 6*[9]*[2]*[2]*[2]*[2]*[2] + 7*[10]*[2]*[2]*[2]*[2]*[2]*[2])*x + ([3] + [4]*[2] + [5]*[2]*[2] + [6]*[2]*[2]*[2] + [7]*[2]*[2]*[2]*[2] + [8]*[2]*[2]*[2]*[2]*[2] + [9]*[2]*[2]*[2]*[2]*[2]*[2] + [10]*[2]*[2]*[2]*[2]*[2]*[2]*[2]-([4] + 2*[5]*[2] + 3*[6]*[2]*[2] + 4*[7]*[2]*[2]*[2] + 5*[8]*[2]*[2]*[2]*[2] + 6*[9]*[2]*[2]*[2]*[2]*[2] + 7*[10]*[2]*[2]*[2]*[2]*[2]*[2])*[2]) ))",
        "p0": 0.1032643243346696,
        "p0_err": [
            null,
            null
        ],
        "p1": -0.008949176907203621,
        "p1_err": [
            null,
            null
        ],
        "p10": -1.7951290981585812e-12,
        "p10_err": 3.0828816349099884e-15,
        "p10_isCte": false,
        "p9": 4.203380790723302e-10,
        "p9_err": 3.128511381318647e-13,
        "p9_isCte": false,
        "p8": -2.3848192360897457e-08,
        "p8_err": 3.1952812617794644e-11,
        "p8_isCte": false,
        "p7": -1.691689469259317e-06,
        "p7_err": 3.2451816884452367e-09,
        "p7_isCte": false,
        "p6": 0.0002775390214297063,
        "p6_err": 3.1668660423257685e-07,
        "p6_isCte": false,
        "p5": -0.014288104680922849,
        "p5_err": 2.753430601240066e-05,
        "p5_isCte": false,
        "p4": 0.44322705157803904,
        "p4_err": 0.0011545780851496643,
        "p4_isCte": false,
        "p3": 0.05338754249323076,
        "p3_err": 0.012298292856975862,
        "p3_isCte": false,
        "p2": 88.76754051268635,
        "p2_err": 1.01766281882489,
        "p2_isCte": false
    },
    "sigma2": {
        "nParams": 3,
        "func": "[0]*TMath::Power(x, [1]) + [2]",
        "p0": 0.035443178803588694,
        "p0_err": [
            null,
            null
        ],
        "p1": 1.069320704504271,
        "p2": 12.370169818535041
    },
    "norm2": {
        "nParams": 1,
        "func": "[0]",
        "p0": 0.15999495341889183,
        "p0_err": [
            null,
            null
        ]
    },
    "mean3": {
        "nParams": 11,
        "func": "([0] + [1]*x) + ((x<[2])*1*([3] + [4]*x + [5]*x*x + [6]*x*x*x + [7]*x*x*x*x + [8]*x*x*x*x*x + [9]*x*x*x*x*x*x + [10]*x*x*x*x*x*x*x) +0+ (x>[2])*1*(  ([4] + 2*[5]*[2] + 3*[6]*[2]*[2] + 4*[7]*[2]*[2]*[2] + 5*[8]*[2]*[2]*[2]*[2] + 6*[9]*[2]*[2]*[2]*[2]*[2] + 7*[10]*[2]*[2]*[2]*[2]*[2]*[2])*x + ([3] + [4]*[2] + [5]*[2]*[2] + [6]*[2]*[2]*[2] + [7]*[2]*[2]*[2]*[2] + [8]*[2]*[2]*[2]*[2]*[2] + [9]*[2]*[2]*[2]*[2]*[2]*[2] + [10]*[2]*[2]*[2]*[2]*[2]*[2]*[2]-([4] + 2*[5]*[2] + 3*[6]*[2]*[2] + 4*[7]*[2]*[2]*[2] + 5*[8]*[2]*[2]*[2]*[2] + 6*[9]*[2]*[2]*[2]*[2]*[2] + 7*[10]*[2]*[2]*[2]*[2]*[2]*[2])*[2]) ))",
        "p0": 0.03970884820947919,
        "p0_err": [
            null,
            null
        ],
        "p1": -0.001494789533134148,
        "p1_err": [
            null,
            null
        ],
        "p10": -1.7951290981585812e-12,
        "p10_err": 3.0828816349099884e-15,
        "p10_isCte": false,
        "p9": 4.203380790723302e-10,
        "p9_err": 3.128511381318647e-13,
        "p9_isCte": false,
        "p8": -2.3848192360897457e-08,
        "p8_err": 3.1952812617794644e-11,
        "p8_isCte": false,
        "p7": -1.691689469259317e-06,
        "p7_err": 3.2451816884452367e-09,
        "p7_isCte": false,
        "p6": 0.0002775390214297063,
        "p6_err": 3.1668660423257685e-07,
        "p6_isCte": false,
        "p5": -0.014288104680922849,
        "p5_err": 2.753430601240066e-05,
        "p5_isCte": false,
        "p4": 0.44322705157803904,
        "p4_err": 0.0011545780851496643,
        "p4_isCte": false,
        "p3": 0.05338754249323076,
        "p3_err": 0.012298292856975862,
        "p3_isCte": false,
        "p2": 88.76754051268635,
        "p2_err": 1.01766281882489,
        "p2_isCte": false
    },
    "sigma3": {
        "nParams": 3,
        "func": "[0]*TMath::Power(x, [1]) + [2]",
        "p0": 0.0379539006213666,
        "p0_err": [
            null,
            null
        ],
        "p1": 0.9981116785406988,
        "p2": 18.354621056215272
    },
    "norm3": {
        "nParams": 1,
        "func": "[0]",
        "p0": 0.6947024514712757,
        "p0_err": [
            null,
            null
        ]
    },
    "mean4": {
        "nParams": 11,
        "func": "([0] + [1]*x) + ((x<[2])*1*([3] + [4]*x + [5]*x*x + [6]*x*x*x + [7]*x*x*x*x + [8]*x*x*x*x*x + [9]*x*x*x*x*x*x + [10]*x*x*x*x*x*x*x) +0+ (x>[2])*1*(  ([4] + 2*[5]*[2] + 3*[6]*[2]*[2] + 4*[7]*[2]*[2]*[2] + 5*[8]*[2]*[2]*[2]*[2] + 6*[9]*[2]*[2]*[2]*[2]*[2] + 7*[10]*[2]*[2]*[2]*[2]*[2]*[2])*x + ([3] + [4]*[2] + [5]*[2]*[2] + [6]*[2]*[2]*[2] + [7]*[2]*[2]*[2]*[2] + [8]*[2]*[2]*[2]*[2]*[2] + [9]*[2]*[2]*[2]*[2]*[2]*[2] + [10]*[2]*[2]*[2]*[2]*[2]*[2]*[2]-([4] + 2*[5]*[2] + 3*[6]*[2]*[2] + 4*[7]*[2]*[2]*[2] + 5*[8]*[2]*[2]*[2]*[2] + 6*[9]*[2]*[2]*[2]*[2]*[2] + 7*[10]*[2]*[2]*[2]*[2]*[2]*[2])*[2]) ))",
        "p0": -0.2801065879658487,
        "p0_err": [
            null,
            null
        ],
        "p1": 0.01326803616275272,
        "p1_err": [
            null,
            null
        ],
        "p10": -1.7951290981585812e-12,
        "p10_err": 3.0828816349099884e-15,
        "p10_isCte": false,
        "p9": 4.203380790723302e-10,
        "p9_err": 3.128511381318647e-13,
        "p9_isCte": false,
        "p8": -2.3848192360897457e-08,
        "p8_err": 3.1952812617794644e-11,
        "p8_isCte": false,
        "p7": -1.691689469259317e-06,
        "p7_err": 3.2451816884452367e-09,
        "p7_isCte": false,
        "p6": 0.0002775390214297063,
        "p6_err": 3.1668660423257685e-07,
        "p6_isCte": false,
        "p5": -0.014288104680922849,
        "p5_err": 2.753430601240066e-05,
        "p5_isCte": false,
        "p4": 0.44322705157803904,
        "p4_err": 0.0011545780851496643,
        "p4_isCte": false,
        "p3": 0.05338754249323076,
        "p3_err": 0.012298292856975862,
        "p3_isCte": false,
        "p2": 88.76754051268635,
        "p2_err": 1.01766281882489,
        "p2_isCte": false
    },
    "sigma4": {
        "nParams": 3,
        "func": "[0]*TMath::Power(x, [1]) + [2]",
        "p0": 0.013180119214416815,
        "p0_err": [
            null,
            null
        ],
        "p1": 1.3692825851857628,
        "p2": 25.066409352137782
    },
    "nStatVars": 16,
    "stat0_p": {
        "mean1": {
            "p0": 1.6237843061481887,
            "p1": -0.2885349148682646,
            "p10": -1.7951290981585812e-12,
            "p9": 4.203380790723302e-10,
            "p8": -2.3848192360897457e-08,
            "p7": -1.691689469259317e-06,
            "p6": 0.0002775390214297063,
            "p5": -0.014288104680922849,
            "p4": 0.44322705157803904,
            "p3": 0.05338754249323076,
            "p2": 88.76754051268635
        },
        "sigma1": {
            "p0": 9.500214460579999,
            "p1": 25.305369582732464
        },
        "norm1": {
            "p0": 0.0002966578111652184
        },
        "mean2": {
            "p0": 0.09255351858840652,
            "p1": -0.008691298287060492,
            "p10": -1.7951290981585812e-12,
            "p9": 4.203380790723302e-10,
            "p8": -2.3848192360897457e-08,
            "p7": -1.691689469259317e-06,
            "p6": 0.0002775390214297063,
            "p5": -0.014288104680922849,
            "p4": 0.44322705157803904,
            "p3": 0.05338754249323076,
            "p2": 88.76754051268635
        },
        "sigma2": {
            "p0": 0.03544537722860604
        },
        "norm2": {
            "p0": 0.15999633403751412
        },
        "mean3": {
            "p0": 0.04709280995896883,
            "p1": -0.001657404235131678,
            "p10": -1.7951290981585812e-12,
            "p9": 4.203380790723302e-10,
            "p8": -2.3848192360897457e-08,
            "p7": -1.691689469259317e-06,
            "p6": 0.0002775390214297063,
            "p5": -0.014288104680922849,
            "p4": 0.44322705157803904,
            "p3": 0.05338754249323076,
            "p2": 88.76754051268635
        },
        "sigma3": {
            "p0": 0.03795250604600335
        },
        "norm3": {
            "p0": 0.694724775373689
        },
        "mean4": {
            "p0": -0.31178064032446096,
            "p1": 0.013973390830144896,
            "p10": -1.7951290981585812e-12,
            "p9": 4.203380790723302e-10,
            "p8": -2.3848192360897457e-08,
            "p7": -1.691689469259317e-06,
            "p6": 0.0002775390214297063,
            "p5": -0.014288104680922849,
            "p4": 0.44322705157803904,
            "p3": 0.05338754249323076,
            "p2": 88.76754051268635
        },
        "sigma4": {
            "p0": 0.013181245174663948
        }
    },
    "stat0_m": {
        "mean1": {
            "p0": -9.744662511671788,
            "p1": 0.13249045516633742,
            "p10": -1.7951290981585812e-12,
            "p9": 4.203380790723302e-10,
            "p8": -2.3848192360897457e-08,
            "p7": -1.691689469259317e-06,
            "p6": 0.0002775390214297063,
            "p5": -0.014288104680922849,
            "p4": 0.44322705157803904,
            "p3": 0.05338754249323076,
            "p2": 88.76754051268635
        },
        "sigma1": {
            "p0": 9.616035687945814,
            "p1": 23.00707039346833
        },
        "norm1": {
            "p0": 0.0003046939405793928
        },
        "mean2": {
            "p0": 0.1139751300809327,
            "p1": -0.009207055527346745,
            "p10": -1.7951290981585812e-12,
            "p9": 4.203380790723302e-10,
            "p8": -2.3848192360897457e-08,
            "p7": -1.691689469259317e-06,
            "p6": 0.0002775390214297063,
            "p5": -0.014288104680922849,
            "p4": 0.44322705157803904,
            "p3": 0.05338754249323076,
            "p2": 88.76754051268635
        },
        "sigma2": {
            "p0": 0.03544098037857138
        },
        "norm2": {
            "p0": 0.15999357280026952
        },
        "mean3": {
            "p0": 0.03232488645998951,
            "p1": -0.00133217483113662,
            "p10": -1.7951290981585812e-12,
            "p9": 4.203380790723302e-10,
            "p8": -2.3848192360897457e-08,
            "p7": -1.691689469259317e-06,
            "p6": 0.0002775390214297063,
            "p5": -0.014288104680922849,
            "p4": 0.44322705157803904,
            "p3": 0.05338754249323076,
            "p2": 88.76754051268635
        },
        "sigma3": {
            "p0": 0.037955295196729855
        },
        "norm3": {
            "p0": 0.6946801275688624
        },
        "mean4": {
            "p0": -0.24843253560723624,
            "p1": 0.012562681495360554,
            "p10": -1.7951290981585812e-12,
            "p9": 4.203380790723302e-10,
            "p8": -2.3848192360897457e-08,
            "p7": -1.691689469259317e-06,
            "p6": 0.0002775390214297063,
            "p5": -0.014288104680922849,
            "p4": 0.44322705157803904,
            "p3": 0.05338754249323076,
            "p2": 88.76754051268635
        },
        "sigma4": {
            "p0": 0.013178993254169685
        }
    },
    "stat1_p": {
        "mean1": {
            "p0": -4.9162791924534295,
            "p1": -0.06067566002173337,
            "p10": -1.7951290981585812e-12,
            "p9": 4.203380790723302e-10,
            "p8": -2.3848192360897457e-08,
            "p7": -1.691689469259317e-06,
            "p6": 0.0002775390214297063,
            "p5": -0.014288104680922849,
            "p4": 0.44322705157803904,
            "p3": 0.05338754249323076,
            "p2": 88.76754051268635
        },
        "sigma1": {
            "p0": 9.426811409949284,
            "p1": 28.386196313035605
        },
        "norm1": {
            "p0": 0.00025077355016726714
        },
        "mean2": {
            "p0": 0.10405585291459614,
            "p1": -0.009009109704907245,
            "p10": -1.7951290981585812e-12,
            "p9": 4.203380790723302e-10,
            "p8": -2.3848192360897457e-08,
            "p7": -1.691689469259317e-06,
            "p6": 0.0002775390214297063,
            "p5": -0.014288104680922849,
            "p4": 0.44322705157803904,
            "p3": 0.05338754249323076,
            "p2": 88.76754051268635
        },
        "sigma2": {
            "p0": 0.035458762265469096
        },
        "norm2": {
            "p0": 0.15998973680539957
        },
        "mean3": {
            "p0": 0.03932030969481252,
            "p1": -0.0014628633925481624,
            "p10": -1.7951290981585812e-12,
            "p9": 4.203380790723302e-10,
            "p8": -2.3848192360897457e-08,
            "p7": -1.691689469259317e-06,
            "p6": 0.0002775390214297063,
            "p5": -0.014288104680922849,
            "p4": 0.44322705157803904,
            "p3": 0.05338754249323076,
            "p2": 88.76754051268635
        },
        "sigma3": {
            "p0": 0.03794079101457712
        },
        "norm3": {
            "p0": 0.6945400011626679
        },
        "mean4": {
            "p0": -0.2791393744626067,
            "p1": 0.013151164497648823,
            "p10": -1.7951290981585812e-12,
            "p9": 4.203380790723302e-10,
            "p8": -2.3848192360897457e-08,
            "p7": -1.691689469259317e-06,
            "p6": 0.0002775390214297063,
            "p5": -0.014288104680922849,
            "p4": 0.44322705157803904,
            "p3": 0.05338754249323076,
            "p2": 88.76754051268635
        },
        "sigma4": {
            "p0": 0.013187288781788053
        }
    },
    "stat1_m": {
        "mean1": {
            "p0": -3.204599013070169,
            "p1": -0.09536879968019388,
            "p10": -1.7951290981585812e-12,
            "p9": 4.203380790723302e-10,
            "p8": -2.3848192360897457e-08,
            "p7": -1.691689469259317e-06,
            "p6": 0.0002775390214297063,
            "p5": -0.014288104680922849,
            "p4": 0.44322705157803904,
            "p3": 0.05338754249323076,
            "p2": 88.76754051268635
        },
        "sigma1": {
            "p0": 9.689438738576527,
            "p1": 19.926243663165188
        },
        "norm1": {
            "p0": 0.00035057820157734405
        },
        "mean2": {
            "p0": 0.10247279575474309,
            "p1": -0.00888924410949999,
            "p10": -1.7951290981585812e-12,
            "p9": 4.203380790723302e-10,
            "p8": -2.3848192360897457e-08,
            "p7": -1.691689469259317e-06,
            "p6": 0.0002775390214297063,
            "p5": -0.014288104680922849,
            "p4": 0.44322705157803904,
            "p3": 0.05338754249323076,
            "p2": 88.76754051268635
        },
        "sigma2": {
            "p0": 0.03542759534170832
        },
        "norm2": {
            "p0": 0.16000017003238404
        },
        "mean3": {
            "p0": 0.040097386724145825,
            "p1": -0.0015267156737201353,
            "p10": -1.7951290981585812e-12,
            "p9": 4.203380790723302e-10,
            "p8": -2.3848192360897457e-08,
            "p7": -1.691689469259317e-06,
            "p6": 0.0002775390214297063,
            "p5": -0.014288104680922849,
            "p4": 0.44322705157803904,
            "p3": 0.05338754249323076,
            "p2": 88.76754051268635
        },
        "sigma3": {
            "p0": 0.03796701022815609
        },
        "norm3": {
            "p0": 0.6948649017798837
        },
        "mean4": {
            "p0": -0.2810738014690904,
            "p1": 0.013384907827856627,
            "p10": -1.7951290981585812e-12,
            "p9": 4.203380790723302e-10,
            "p8": -2.3848192360897457e-08,
            "p7": -1.691689469259317e-06,
            "p6": 0.0002775390214297063,
            "p5": -0.014288104680922849,
            "p4": 0.44322705157803904,
            "p3": 0.05338754249323076,
            "p2": 88.76754051268635
        },
        "sigma4": {
            "p0": 0.01317294964704558
        }
    },
    "stat2_p": {
        "mean1": {
            "p0": -4.05944069468317,
            "p1": -0.09899399658803096,
            "p10": -1.7951290981585812e-12,
            "p9": 4.203380790723302e-10,
            "p8": -2.3848192360897457e-08,
            "p7": -1.691689469259317e-06,
            "p6": 0.0002775390214297063,
            "p5": -0.014288104680922849,
            "p4": 0.44322705157803904,
            "p3": 0.05338754249323076,
            "p2": 88.76754051268635
        },
        "sigma1": {
            "p0": 10.03697296125866,
            "p1": 24.171375061348456
        },
        "norm1": {
            "p0": 0.00023270744534751924
        },
        "mean2": {
            "p0": 0.10106787946804822,
            "p1": -0.008962151869940607,
            "p10": -1.7951290981585812e-12,
            "p9": 4.203380790723302e-10,
            "p8": -2.3848192360897457e-08,
            "p7": -1.691689469259317e-06,
            "p6": 0.0002775390214297063,
            "p5": -0.014288104680922849,
            "p4": 0.44322705157803904,
            "p3": 0.05338754249323076,
            "p2": 88.76754051268635
        },
        "sigma2": {
            "p0": 0.03547752829236023
        },
        "norm2": {
            "p0": 0.15997447017734
        },
        "mean3": {
            "p0": 0.04133953079897875,
            "p1": -0.0014936664842748997,
            "p10": -1.7951290981585812e-12,
            "p9": 4.203380790723302e-10,
            "p8": -2.3848192360897457e-08,
            "p7": -1.691689469259317e-06,
            "p6": 0.0002775390214297063,
            "p5": -0.014288104680922849,
            "p4": 0.44322705157803904,
            "p3": 0.05338754249323076,
            "p2": 88.76754051268635
        },
        "sigma3": {
            "p0": 0.03792986702444651
        },
        "norm3": {
            "p0": 0.6942009040881569
        },
        "mean4": {
            "p0": -0.28608649896124905,
            "p1": 0.01322688724080004,
            "p10": -1.7951290981585812e-12,
            "p9": 4.203380790723302e-10,
            "p8": -2.3848192360897457e-08,
            "p7": -1.691689469259317e-06,
            "p6": 0.0002775390214297063,
            "p5": -0.014288104680922849,
            "p4": 0.44322705157803904,
            "p3": 0.05338754249323076,
            "p2": 88.76754051268635
        },
        "sigma4": {
            "p0": 0.01318826702278705
        }
    },
    "stat2_m": {
        "mean1": {
            "p0": -4.0614375108404275,
            "p1": -0.057050463113896235,
            "p10": -1.7951290981585812e-12,
            "p9": 4.203380790723302e-10,
            "p8": -2.3848192360897457e-08,
            "p7": -1.691689469259317e-06,
            "p6": 0.0002775390214297063,
            "p5": -0.014288104680922849,
            "p4": 0.44322705157803904,
            "p3": 0.05338754249323076,
            "p2": 88.76754051268635
        },
        "sigma1": {
            "p0": 9.07927718726715,
            "p1": 24.14106491485234
        },
        "norm1": {
            "p0": 0.00036864430639709216
        },
        "mean2": {
            "p0": 0.105460769201291,
            "p1": -0.00893620194446663,
            "p10": -1.7951290981585812e-12,
            "p9": 4.203380790723302e-10,
            "p8": -2.3848192360897457e-08,
            "p7": -1.691689469259317e-06,
            "p6": 0.0002775390214297063,
            "p5": -0.014288104680922849,
            "p4": 0.44322705157803904,
            "p3": 0.05338754249323076,
            "p2": 88.76754051268635
        },
        "sigma2": {
            "p0": 0.03540882931481719
        },
        "norm2": {
            "p0": 0.16001543666044363
        },
        "mean3": {
            "p0": 0.038078165619979586,
            "p1": -0.001495912581993398,
            "p10": -1.7951290981585812e-12,
            "p9": 4.203380790723302e-10,
            "p8": -2.3848192360897457e-08,
            "p7": -1.691689469259317e-06,
            "p6": 0.0002775390214297063,
            "p5": -0.014288104680922849,
            "p4": 0.44322705157803904,
            "p3": 0.05338754249323076,
            "p2": 88.76754051268635
        },
        "sigma3": {
            "p0": 0.03797793421828669
        },
        "norm3": {
            "p0": 0.6952039988543947
        },
        "mean4": {
            "p0": -0.2741266769704481,
            "p1": 0.01330918508470541,
            "p10": -1.7951290981585812e-12,
            "p9": 4.203380790723302e-10,
            "p8": -2.3848192360897457e-08,
            "p7": -1.691689469259317e-06,
            "p6": 0.0002775390214297063,
            "p5": -0.014288104680922849,
            "p4": 0.44322705157803904,
            "p3": 0.05338754249323076,
            "p2": 88.76754051268635
        },
        "sigma4": {
            "p0": 0.013171971406046583
        }
    },
    "stat3_p": {
        "mean1": {
            "p0": -4.066545126163572,
            "p1": -0.2473623565650612,
            "p10": -1.7951290981585812e-12,
            "p9": 4.203380790723302e-10,
            "p8": -2.3848192360897457e-08,
            "p7": -1.691689469259317e-06,
            "p6": 0.0002775390214297063,
            "p5": -0.014288104680922849,
            "p4": 0.44322705157803904,
            "p3": 0.05338754249323076,
            "p2": 88.76754051268635
        },
        "sigma1": {
            "p0": 9.550936031528817,
            "p1": 24.155451707152196
        },
        "norm1": {
            "p0": 0.00029341939233303526
        },
        "mean2": {
            "p0": 0.10857562051752666,
            "p1": -0.008884498007139766,
            "p10": -1.7951290981585812e-12,
            "p9": 4.203380790723302e-10,
            "p8": -2.3848192360897457e-08,
            "p7": -1.691689469259317e-06,
            "p6": 0.0002775390214297063,
            "p5": -0.014288104680922849,
            "p4": 0.44322705157803904,
            "p3": 0.05338754249323076,
            "p2": 88.76754051268635
        },
        "sigma2": {
            "p0": 0.035449549902811545
        },
        "norm2": {
            "p0": 0.1599926258538393
        },
        "mean3": {
            "p0": 0.03629140839256954,
            "p1": -0.0015290731720806773,
            "p10": -1.7951290981585812e-12,
            "p9": 4.203380790723302e-10,
            "p8": -2.3848192360897457e-08,
            "p7": -1.691689469259317e-06,
            "p6": 0.0002775390214297063,
            "p5": -0.014288104680922849,
            "p4": 0.44322705157803904,
            "p3": 0.05338754249323076,
            "p2": 88.76754051268635
        },
        "sigma3": {
            "p0": 0.03794991234974909
        },
        "norm3": {
            "p0": 0.6946390748248864
        },
        "mean4": {
            "p0": -0.26774002150634,
            "p1": 0.013417120619514257,
            "p10": -1.7951290981585812e-12,
            "p9": 4.203380790723302e-10,
            "p8": -2.3848192360897457e-08,
            "p7": -1.691689469259317e-06,
            "p6": 0.0002775390214297063,
            "p5": -0.014288104680922849,
            "p4": 0.44322705157803904,
            "p3": 0.05338754249323076,
            "p2": 88.76754051268635
        },
        "sigma4": {
            "p0": 0.013181247703940226
        }
    },
    "stat3_m": {
        "mean1": {
            "p0": -4.054333079360027,
            "p1": 0.09131789686313399,
            "p10": -1.7951290981585812e-12,
            "p9": 4.203380790723302e-10,
            "p8": -2.3848192360897457e-08,
            "p7": -1.691689469259317e-06,
            "p6": 0.0002775390214297063,
            "p5": -0.014288104680922849,
            "p4": 0.44322705157803904,
            "p3": 0.05338754249323076,
            "p2": 88.76754051268635
        },
        "sigma1": {
            "p0": 9.565314116996994,
            "p1": 24.156988269048597
        },
        "norm1": {
            "p0": 0.00030793235941157615
        },
        "mean2": {
            "p0": 0.09795302815181256,
            "p1": -0.009013855807267471,
            "p10": -1.7951290981585812e-12,
            "p9": 4.203380790723302e-10,
            "p8": -2.3848192360897457e-08,
            "p7": -1.691689469259317e-06,
            "p6": 0.0002775390214297063,
            "p5": -0.014288104680922849,
            "p4": 0.44322705157803904,
            "p3": 0.05338754249323076,
            "p2": 88.76754051268635
        },
        "sigma2": {
            "p0": 0.03543680770436587
        },
        "norm2": {
            "p0": 0.15999728098394433
        },
        "mean3": {
            "p0": 0.04312628802638881,
            "p1": -0.0014605058941876204,
            "p10": -1.7951290981585812e-12,
            "p9": 4.203380790723302e-10,
            "p8": -2.3848192360897457e-08,
            "p7": -1.691689469259317e-06,
            "p6": 0.0002775390214297063,
            "p5": -0.014288104680922849,
            "p4": 0.44322705157803904,
            "p3": 0.05338754249323076,
            "p2": 88.76754051268635
        },
        "sigma3": {
            "p0": 0.03795788889298411
        },
        "norm3": {
            "p0": 0.6947658281176652
        },
        "mean4": {
            "p0": -0.2924731544253571,
            "p1": 0.013118951705991193,
            "p10": -1.7951290981585812e-12,
            "p9": 4.203380790723302e-10,
            "p8": -2.3848192360897457e-08,
            "p7": -1.691689469259317e-06,
            "p6": 0.0002775390214297063,
            "p5": -0.014288104680922849,
            "p4": 0.44322705157803904,
            "p3": 0.05338754249323076,
            "p2": 88.76754051268635
        },
        "sigma4": {
            "p0": 0.013178990724893407
        }
    },
    "stat4_p": {
        "mean1": {
            "p0": -4.061401413467454,
            "p1": -0.08697842948738485,
            "p10": -1.7951290981585812e-12,
            "p9": 4.203380790723302e-10,
            "p8": -2.3848192360897457e-08,
            "p7": -1.691689469259317e-06,
            "p6": 0.0002775390214297063,
            "p5": -0.014288104680922849,
            "p4": 0.44322705157803904,
            "p3": 0.05338754249323076,
            "p2": 88.76754051268635
        },
        "sigma1": {
            "p0": 9.556246904938652,
            "p1": 24.156039613053633
        },
        "norm1": {
            "p0": 0.00029947239270702256
        },
        "mean2": {
            "p0": 0.03063217968026965,
            "p1": -0.006726589112576482,
            "p10": -1.7951290981585812e-12,
            "p9": 4.203380790723302e-10,
            "p8": -2.3848192360897457e-08,
            "p7": -1.691689469259317e-06,
            "p6": 0.0002775390214297063,
            "p5": -0.014288104680922849,
            "p4": 0.44322705157803904,
            "p3": 0.05338754249323076,
            "p2": 88.76754051268635
        },
        "sigma2": {
            "p0": 0.03545426174226647
        },
        "norm2": {
            "p0": 0.15999345004558083
        },
        "mean3": {
            "p0": 0.07239937737241876,
            "p1": -0.00239533135582591,
            "p10": -1.7951290981585812e-12,
            "p9": 4.203380790723302e-10,
            "p8": -2.3848192360897457e-08,
            "p7": -1.691689469259317e-06,
            "p6": 0.0002775390214297063,
            "p5": -0.014288104680922849,
            "p4": 0.44322705157803904,
            "p3": 0.05338754249323076,
            "p2": 88.76754051268635
        },
        "sigma3": {
            "p0": 0.03795096585358079
        },
        "norm3": {
            "p0": 0.6946854569183173
        },
        "mean4": {
            "p0": -0.36413651624847626,
            "p1": 0.015373886660903592,
            "p10": -1.7951290981585812e-12,
            "p9": 4.203380790723302e-10,
            "p8": -2.3848192360897457e-08,
            "p7": -1.691689469259317e-06,
            "p6": 0.0002775390214297063,
            "p5": -0.014288104680922849,
            "p4": 0.44322705157803904,
            "p3": 0.05338754249323076,
            "p2": 88.76754051268635
        },
        "sigma4": {
            "p0": 0.013180593900875965
        }
    },
    "stat4_m": {
        "mean1": {
            "p0": -4.059476792056144,
            "p1": -0.06906603021454236,
            "p10": -1.7951290981585812e-12,
            "p9": 4.203380790723302e-10,
            "p8": -2.3848192360897457e-08,
            "p7": -1.691689469259317e-06,
            "p6": 0.0002775390214297063,
            "p5": -0.014288104680922849,
            "p4": 0.44322705157803904,
            "p3": 0.05338754249323076,
            "p2": 88.76754051268635
        },
        "sigma1": {
            "p0": 9.56000324358716,
            "p1": 24.156400363147156
        },
        "norm1": {
            "p0": 0.00030187935903758906
        },
        "mean2": {
            "p0": 0.17589646898906958,
            "p1": -0.011171764701830754,
            "p10": -1.7951290981585812e-12,
            "p9": 4.203380790723302e-10,
            "p8": -2.3848192360897457e-08,
            "p7": -1.691689469259317e-06,
            "p6": 0.0002775390214297063,
            "p5": -0.014288104680922849,
            "p4": 0.44322705157803904,
            "p3": 0.05338754249323076,
            "p2": 88.76754051268635
        },
        "sigma2": {
            "p0": 0.035432095864910945
        },
        "norm2": {
            "p0": 0.1599964567922028
        },
        "mean3": {
            "p0": 0.007018319046539557,
            "p1": -0.0005942477104423879,
            "p10": -1.7951290981585812e-12,
            "p9": 4.203380790723302e-10,
            "p8": -2.3848192360897457e-08,
            "p7": -1.691689469259317e-06,
            "p6": 0.0002775390214297063,
            "p5": -0.014288104680922849,
            "p4": 0.44322705157803904,
            "p3": 0.05338754249323076,
            "p2": 88.76754051268635
        },
        "sigma3": {
            "p0": 0.03795683538915241
        },
        "norm3": {
            "p0": 0.6947194460242342
        },
        "mean4": {
            "p0": -0.1960766596832209,
            "p1": 0.011162185664601858,
            "p10": -1.7951290981585812e-12,
            "p9": 4.203380790723302e-10,
            "p8": -2.3848192360897457e-08,
            "p7": -1.691689469259317e-06,
            "p6": 0.0002775390214297063,
            "p5": -0.014288104680922849,
            "p4": 0.44322705157803904,
            "p3": 0.05338754249323076,
            "p2": 88.76754051268635
        },
        "sigma4": {
            "p0": 0.013179644527957668
        }
    },
    "stat5_p": {
        "mean1": {
            "p0": -4.060248920154092,
            "p1": -0.07653343834825235,
            "p10": -1.7951290981585812e-12,
            "p9": 4.203380790723302e-10,
            "p8": -2.3848192360897457e-08,
            "p7": -1.691689469259317e-06,
            "p6": 0.0002775390214297063,
            "p5": -0.014288104680922849,
            "p4": 0.44322705157803904,
            "p3": 0.05338754249323076,
            "p2": 88.76754051268635
        },
        "sigma1": {
            "p0": 9.558483337167377,
            "p1": 24.15626303585053
        },
        "norm1": {
            "p0": 0.0003012900446974383
        },
        "mean2": {
            "p0": 0.05639508687904087,
            "p1": -0.007179512674084544,
            "p10": -1.7951290981585812e-12,
            "p9": 4.203380790723302e-10,
            "p8": -2.3848192360897457e-08,
            "p7": -1.691689469259317e-06,
            "p6": 0.0002775390214297063,
            "p5": -0.014288104680922849,
            "p4": 0.44322705157803904,
            "p3": 0.05338754249323076,
            "p2": 88.76754051268635
        },
        "sigma2": {
            "p0": 0.035450232278067394
        },
        "norm2": {
            "p0": 0.15998667571177225
        },
        "mean3": {
            "p0": 0.04366106108052064,
            "p1": -0.001800170409158239,
            "p10": -1.7951290981585812e-12,
            "p9": 4.203380790723302e-10,
            "p8": -2.3848192360897457e-08,
            "p7": -1.691689469259317e-06,
            "p6": 0.0002775390214297063,
            "p5": -0.014288104680922849,
            "p4": 0.44322705157803904,
            "p3": 0.05338754249323076,
            "p2": 88.76754051268635
        },
        "sigma3": {
            "p0": 0.03795386145214864
        },
        "norm3": {
            "p0": 0.6945886560246722
        },
        "mean4": {
            "p0": -0.2381948146485877,
            "p1": 0.012516533279522998,
            "p10": -1.7951290981585812e-12,
            "p9": 4.203380790723302e-10,
            "p8": -2.3848192360897457e-08,
            "p7": -1.691689469259317e-06,
            "p6": 0.0002775390214297063,
            "p5": -0.014288104680922849,
            "p4": 0.44322705157803904,
            "p3": 0.05338754249323076,
            "p2": 88.76754051268635
        },
        "sigma4": {
            "p0": 0.013179006716958177
        }
    },
    "stat5_m": {
        "mean1": {
            "p0": -4.060629285369505,
            "p1": -0.07951102135367484,
            "p10": -1.7951290981585812e-12,
            "p9": 4.203380790723302e-10,
            "p8": -2.3848192360897457e-08,
            "p7": -1.691689469259317e-06,
            "p6": 0.0002775390214297063,
            "p5": -0.014288104680922849,
            "p4": 0.44322705157803904,
            "p3": 0.05338754249323076,
            "p2": 88.76754051268635
        },
        "sigma1": {
            "p0": 9.557766811358434,
            "p1": 24.15617694035026
        },
        "norm1": {
            "p0": 0.0003000617070471733
        },
        "mean2": {
            "p0": 0.15013356179029838,
            "p1": -0.010718841140322692,
            "p10": -1.7951290981585812e-12,
            "p9": 4.203380790723302e-10,
            "p8": -2.3848192360897457e-08,
            "p7": -1.691689469259317e-06,
            "p6": 0.0002775390214297063,
            "p5": -0.014288104680922849,
            "p4": 0.44322705157803904,
            "p3": 0.05338754249323076,
            "p2": 88.76754051268635
        },
        "sigma2": {
            "p0": 0.03543612532911003
        },
        "norm2": {
            "p0": 0.1600032311260114
        },
        "mean3": {
            "p0": 0.035756635338437696,
            "p1": -0.0011894086571100587,
            "p10": -1.7951290981585812e-12,
            "p9": 4.203380790723302e-10,
            "p8": -2.3848192360897457e-08,
            "p7": -1.691689469259317e-06,
            "p6": 0.0002775390214297063,
            "p5": -0.014288104680922849,
            "p4": 0.44322705157803904,
            "p3": 0.05338754249323076,
            "p2": 88.76754051268635
        },
        "sigma3": {
            "p0": 0.03795393979058456
        },
        "norm3": {
            "p0": 0.6948162469178792
        },
        "mean4": {
            "p0": -0.3220183612831095,
            "p1": 0.014019539045982451,
            "p10": -1.7951290981585812e-12,
            "p9": 4.203380790723302e-10,
            "p8": -2.3848192360897457e-08,
            "p7": -1.691689469259317e-06,
            "p6": 0.0002775390214297063,
            "p5": -0.014288104680922849,
            "p4": 0.44322705157803904,
            "p3": 0.05338754249323076,
            "p2": 88.76754051268635
        },
        "sigma4": {
            "p0": 0.013181231711875456
        }
    },
    "stat6_p": {
        "mean1": {
            "p0": -4.060440995402089,
            "p1": -0.07802730948797389,
            "p10": -1.7951290981585812e-12,
            "p9": 4.203380790723302e-10,
            "p8": -2.3848192360897457e-08,
            "p7": -1.691689469259317e-06,
            "p6": 0.0002775390214297063,
            "p5": -0.014288104680922849,
            "p4": 0.44322705157803904,
            "p3": 0.05338754249323076,
            "p2": 88.76754051268635
        },
        "sigma1": {
            "p0": 9.558125899764033,
            "p1": 24.15621960147188
        },
        "norm1": {
            "p0": 0.0003008946002649301
        },
        "mean2": {
            "p0": 0.10042891327793656,
            "p1": -0.008782758546759008,
            "p10": -1.7951290981585812e-12,
            "p9": 4.203380790723302e-10,
            "p8": -2.3848192360897457e-08,
            "p7": -1.691689469259317e-06,
            "p6": 0.0002775390214297063,
            "p5": -0.014288104680922849,
            "p4": 0.44322705157803904,
            "p3": 0.05338754249323076,
            "p2": 88.76754051268635
        },
        "sigma2": {
            "p0": 0.03543428096047524
        },
        "norm2": {
            "p0": 0.16001033931644512
        },
        "mean3": {
            "p0": 0.028060516605496195,
            "p1": -0.001256270677433733,
            "p10": -1.7951290981585812e-12,
            "p9": 4.203380790723302e-10,
            "p8": -2.3848192360897457e-08,
            "p7": -1.691689469259317e-06,
            "p6": 0.0002775390214297063,
            "p5": -0.014288104680922849,
            "p4": 0.44322705157803904,
            "p3": 0.05338754249323076,
            "p2": 88.76754051268635
        },
        "sigma3": {
            "p0": 0.037955762673837545
        },
        "norm3": {
            "p0": 0.6949247724432276
        },
        "mean4": {
            "p0": -0.2821795188516687,
            "p1": 0.013487848038633874,
            "p10": -1.7951290981585812e-12,
            "p9": 4.203380790723302e-10,
            "p8": -2.3848192360897457e-08,
            "p7": -1.691689469259317e-06,
            "p6": 0.0002775390214297063,
            "p5": -0.014288104680922849,
            "p4": 0.44322705157803904,
            "p3": 0.05338754249323076,
            "p2": 88.76754051268635
        },
        "sigma4": {
            "p0": 0.013182230146826592
        }
    },
    "stat6_m": {
        "mean1": {
            "p0": -4.060437210121509,
            "p1": -0.0780171502139533,
            "p10": -1.7951290981585812e-12,
            "p9": 4.203380790723302e-10,
            "p8": -2.3848192360897457e-08,
            "p7": -1.691689469259317e-06,
            "p6": 0.0002775390214297063,
            "p5": -0.014288104680922849,
            "p4": 0.44322705157803904,
            "p3": 0.05338754249323076,
            "p2": 88.76754051268635
        },
        "sigma1": {
            "p0": 9.55812424876178,
            "p1": 24.156220374728914
        },
        "norm1": {
            "p0": 0.0003004571514796815
        },
        "mean2": {
            "p0": 0.10609973539140265,
            "p1": -0.009115595267648229,
            "p10": -1.7951290981585812e-12,
            "p9": 4.203380790723302e-10,
            "p8": -2.3848192360897457e-08,
            "p7": -1.691689469259317e-06,
            "p6": 0.0002775390214297063,
            "p5": -0.014288104680922849,
            "p4": 0.44322705157803904,
            "p3": 0.05338754249323076,
            "p2": 88.76754051268635
        },
        "sigma2": {
            "p0": 0.03545207664670218
        },
        "norm2": {
            "p0": 0.15997956752133852
        },
        "mean3": {
            "p0": 0.05135717981346214,
            "p1": -0.0017333083888345648,
            "p10": -1.7951290981585812e-12,
            "p9": 4.203380790723302e-10,
            "p8": -2.3848192360897457e-08,
            "p7": -1.691689469259317e-06,
            "p6": 0.0002775390214297063,
            "p5": -0.014288104680922849,
            "p4": 0.44322705157803904,
            "p3": 0.05338754249323076,
            "p2": 88.76754051268635
        },
        "sigma3": {
            "p0": 0.03795203856889566
        },
        "norm3": {
            "p0": 0.6944801304993239
        },
        "mean4": {
            "p0": -0.2780336570800285,
            "p1": 0.013048224286871574,
            "p10": -1.7951290981585812e-12,
            "p9": 4.203380790723302e-10,
            "p8": -2.3848192360897457e-08,
            "p7": -1.691689469259317e-06,
            "p6": 0.0002775390214297063,
            "p5": -0.014288104680922849,
            "p4": 0.44322705157803904,
            "p3": 0.05338754249323076,
            "p2": 88.76754051268635
        },
        "sigma4": {
            "p0": 0.01317800828200704
        }
    },
    "stat7_p": {
        "mean1": {
            "p0": -4.060438732417379,
            "p1": -0.07801223413799356,
            "p10": -1.7951290981585812e-12,
            "p9": 4.203380790723302e-10,
            "p8": -2.3848192360897457e-08,
            "p7": -1.691689469259317e-06,
            "p6": 0.0002775390214297063,
            "p5": -0.014288104680922849,
            "p4": 0.44322705157803904,
            "p3": 0.05338754249323076,
            "p2": 88.76754051268635
        },
        "sigma1": {
            "p0": 9.5581268360837,
            "p1": 24.156220156699757
        },
        "norm1": {
            "p0": 0.00030136869642127784
        },
        "mean2": {
            "p0": 0.10338334400068104,
            "p1": -0.006191859127873328,
            "p10": -1.7951290981585812e-12,
            "p9": 4.203380790723302e-10,
            "p8": -2.3848192360897457e-08,
            "p7": -1.691689469259317e-06,
            "p6": 0.0002775390214297063,
            "p5": -0.014288104680922849,
            "p4": 0.44322705157803904,
            "p3": 0.05338754249323076,
            "p2": 88.76754051268635
        },
        "sigma2": {
            "p0": 0.035459952094225825
        },
        "norm2": {
            "p0": 0.15999432746167186
        },
        "mean3": {
            "p0": 0.03973258208241541,
            "p1": -0.0025636490308325022,
            "p10": -1.7951290981585812e-12,
            "p9": 4.203380790723302e-10,
            "p8": -2.3848192360897457e-08,
            "p7": -1.691689469259317e-06,
            "p6": 0.0002775390214297063,
            "p5": -0.014288104680922849,
            "p4": 0.44322705157803904,
            "p3": 0.05338754249323076,
            "p2": 88.76754051268635
        },
        "sigma3": {
            "p0": 0.037950382731915026
        },
        "norm3": {
            "p0": 0.6946923682688108
        },
        "mean4": {
            "p0": -0.2800585789152523,
            "p1": 0.015597211891915175,
            "p10": -1.7951290981585812e-12,
            "p9": 4.203380790723302e-10,
            "p8": -2.3848192360897457e-08,
            "p7": -1.691689469259317e-06,
            "p6": 0.0002775390214297063,
            "p5": -0.014288104680922849,
            "p4": 0.44322705157803904,
            "p3": 0.05338754249323076,
            "p2": 88.76754051268635
        },
        "sigma4": {
            "p0": 0.013180387622346603
        }
    },
    "stat7_m": {
        "mean1": {
            "p0": -4.06043947310622,
            "p1": -0.07803222556393365,
            "p10": -1.7951290981585812e-12,
            "p9": 4.203380790723302e-10,
            "p8": -2.3848192360897457e-08,
            "p7": -1.691689469259317e-06,
            "p6": 0.0002775390214297063,
            "p5": -0.014288104680922849,
            "p4": 0.44322705157803904,
            "p3": 0.05338754249323076,
            "p2": 88.76754051268635
        },
        "sigma1": {
            "p0": 9.558123312442113,
            "p1": 24.156219819501036
        },
        "norm1": {
            "p0": 0.0002999830553233338
        },
        "mean2": {
            "p0": 0.10314530466865816,
            "p1": -0.011706494686533907,
            "p10": -1.7951290981585812e-12,
            "p9": 4.203380790723302e-10,
            "p8": -2.3848192360897457e-08,
            "p7": -1.691689469259317e-06,
            "p6": 0.0002775390214297063,
            "p5": -0.014288104680922849,
            "p4": 0.44322705157803904,
            "p3": 0.05338754249323076,
            "p2": 88.76754051268635
        },
        "sigma2": {
            "p0": 0.0354264055129516
        },
        "norm2": {
            "p0": 0.15999557937611175
        },
        "mean3": {
            "p0": 0.039685114336542926,
            "p1": -0.0004259300354357962,
            "p10": -1.7951290981585812e-12,
            "p9": 4.203380790723302e-10,
            "p8": -2.3848192360897457e-08,
            "p7": -1.691689469259317e-06,
            "p6": 0.0002775390214297063,
            "p5": -0.014288104680922849,
            "p4": 0.44322705157803904,
            "p3": 0.05338754249323076,
            "p2": 88.76754051268635
        },
        "sigma3": {
            "p0": 0.03795741851081818
        },
        "norm3": {
            "p0": 0.6947125346737408
        },
        "mean4": {
            "p0": -0.2801545970164448,
            "p1": 0.010938860433590275,
            "p10": -1.7951290981585812e-12,
            "p9": 4.203380790723302e-10,
            "p8": -2.3848192360897457e-08,
            "p7": -1.691689469259317e-06,
            "p6": 0.0002775390214297063,
            "p5": -0.014288104680922849,
            "p4": 0.44322705157803904,
            "p3": 0.05338754249323076,
            "p2": 88.76754051268635
        },
        "sigma4": {
            "p0": 0.01317985080648703
        }
    },
    "stat8_p": {
        "mean1": {
            "p0": -4.060439132159187,
            "p1": -0.0780229409634426,
            "p10": -1.7951290981585812e-12,
            "p9": 4.203380790723302e-10,
            "p8": -2.3848192360897457e-08,
            "p7": -1.691689469259317e-06,
            "p6": 0.0002775390214297063,
            "p5": -0.014288104680922849,
            "p4": 0.44322705157803904,
            "p3": 0.05338754249323076,
            "p2": 88.76754051268635
        },
        "sigma1": {
            "p0": 9.558127616532943,
            "p1": 24.156220159145683
        },
        "norm1": {
            "p0": 0.0003057512140553203
        },
        "mean2": {
            "p0": 0.10326873949319133,
            "p1": -0.009037291141707177,
            "p10": -1.7951290981585812e-12,
            "p9": 4.203380790723302e-10,
            "p8": -2.3848192360897457e-08,
            "p7": -1.691689469259317e-06,
            "p6": 0.0002775390214297063,
            "p5": -0.014288104680922849,
            "p4": 0.44322705157803904,
            "p3": 0.05338754249323076,
            "p2": 88.76754051268635
        },
        "sigma2": {
            "p0": 0.03534239880763299
        },
        "norm2": {
            "p0": 0.16015815912918163
        },
        "mean3": {
            "p0": 0.039753172798216774,
            "p1": -0.0014693424212878859,
            "p10": -1.7951290981585812e-12,
            "p9": 4.203380790723302e-10,
            "p8": -2.3848192360897457e-08,
            "p7": -1.691689469259317e-06,
            "p6": 0.0002775390214297063,
            "p5": -0.014288104680922849,
            "p4": 0.44322705157803904,
            "p3": 0.05338754249323076,
            "p2": 88.76754051268635
        },
        "sigma3": {
            "p0": 0.037978077087679904
        },
        "norm3": {
            "p0": 0.6971051345401187
        },
        "mean4": {
            "p0": -0.280093084192378,
            "p1": 0.013394274469205082,
            "p10": -1.7951290981585812e-12,
            "p9": 4.203380790723302e-10,
            "p8": -2.3848192360897457e-08,
            "p7": -1.691689469259317e-06,
            "p6": 0.0002775390214297063,
            "p5": -0.014288104680922849,
            "p4": 0.44322705157803904,
            "p3": 0.05338754249323076,
            "p2": 88.76754051268635
        },
        "sigma4": {
            "p0": 0.013198008617954185
        }
    },
    "stat8_m": {
        "mean1": {
            "p0": -4.06043907336441,
            "p1": -0.07802151873848459,
            "p10": -1.7951290981585812e-12,
            "p9": 4.203380790723302e-10,
            "p8": -2.3848192360897457e-08,
            "p7": -1.691689469259317e-06,
            "p6": 0.0002775390214297063,
            "p5": -0.014288104680922849,
            "p4": 0.44322705157803904,
            "p3": 0.05338754249323076,
            "p2": 88.76754051268635
        },
        "sigma1": {
            "p0": 9.55812253199287,
            "p1": 24.15621981705511
        },
        "norm1": {
            "p0": 0.00029560053768929134
        },
        "mean2": {
            "p0": 0.10325990917614787,
            "p1": -0.008861062672700055,
            "p10": -1.7951290981585812e-12,
            "p9": 4.203380790723302e-10,
            "p8": -2.3848192360897457e-08,
            "p7": -1.691689469259317e-06,
            "p6": 0.0002775390214297063,
            "p5": -0.014288104680922849,
            "p4": 0.44322705157803904,
            "p3": 0.05338754249323076,
            "p2": 88.76754051268635
        },
        "sigma2": {
            "p0": 0.035543958799544424
        },
        "norm2": {
            "p0": 0.15983174770860198
        },
        "mean3": {
            "p0": 0.03966452362074156,
            "p1": -0.0015202366449804125,
            "p10": -1.7951290981585812e-12,
            "p9": 4.203380790723302e-10,
            "p8": -2.3848192360897457e-08,
            "p7": -1.691689469259317e-06,
            "p6": 0.0002775390214297063,
            "p5": -0.014288104680922849,
            "p4": 0.44322705157803904,
            "p3": 0.05338754249323076,
            "p2": 88.76754051268635
        },
        "sigma3": {
            "p0": 0.0379297241550533
        },
        "norm3": {
            "p0": 0.6922997684024328
        },
        "mean4": {
            "p0": -0.28012009173931907,
            "p1": 0.01314179785630036,
            "p10": -1.7951290981585812e-12,
            "p9": 4.203380790723302e-10,
            "p8": -2.3848192360897457e-08,
            "p7": -1.691689469259317e-06,
            "p6": 0.0002775390214297063,
            "p5": -0.014288104680922849,
            "p4": 0.44322705157803904,
            "p3": 0.05338754249323076,
            "p2": 88.76754051268635
        },
        "sigma4": {
            "p0": 0.013162229810879451
        }
    },
    "stat9_p": {
        "mean1": {
            "p0": -4.060439191704671,
            "p1": -0.07802454168630522,
            "p10": -1.7951290981585812e-12,
            "p9": 4.203380790723302e-10,
            "p8": -2.3848192360897457e-08,
            "p7": -1.691689469259317e-06,
            "p6": 0.0002775390214297063,
            "p5": -0.014288104680922849,
            "p4": 0.44322705157803904,
            "p3": 0.05338754249323076,
            "p2": 88.76754051268635
        },
        "sigma1": {
            "p0": 9.558124731822971,
            "p1": 24.15621995196177
        },
        "norm1": {
            "p0": 0.000300350234597512
        },
        "mean2": {
            "p0": 0.10329911966682673,
            "p1": -0.00772727452680613,
            "p10": -1.7951290981585812e-12,
            "p9": 4.203380790723302e-10,
            "p8": -2.3848192360897457e-08,
            "p7": -1.691689469259317e-06,
            "p6": 0.0002775390214297063,
            "p5": -0.014288104680922849,
            "p4": 0.44322705157803904,
            "p3": 0.05338754249323076,
            "p2": 88.76754051268635
        },
        "sigma2": {
            "p0": 0.03543571715974254
        },
        "norm2": {
            "p0": 0.16000259463589145
        },
        "mean3": {
            "p0": 0.03969818429858448,
            "p1": -0.0015446731916648815,
            "p10": -1.7951290981585812e-12,
            "p9": 4.203380790723302e-10,
            "p8": -2.3848192360897457e-08,
            "p7": -1.691689469259317e-06,
            "p6": 0.0002775390214297063,
            "p5": -0.014288104680922849,
            "p4": 0.44322705157803904,
            "p3": 0.05338754249323076,
            "p2": 88.76754051268635
        },
        "sigma3": {
            "p0": 0.03795826183371341
        },
        "norm3": {
            "p0": 0.6948244767215797
        },
        "mean4": {
            "p0": -0.28014456062593157,
            "p1": 0.01179834996230511,
            "p10": -1.7951290981585812e-12,
            "p9": 4.203380790723302e-10,
            "p8": -2.3848192360897457e-08,
            "p7": -1.691689469259317e-06,
            "p6": 0.0002775390214297063,
            "p5": -0.014288104680922849,
            "p4": 0.44322705157803904,
            "p3": 0.05338754249323076,
            "p2": 88.76754051268635
        },
        "sigma4": {
            "p0": 0.013180525727941733
        }
    },
    "stat9_m": {
        "mean1": {
            "p0": -4.060439013818926,
            "p1": -0.07801991801562197,
            "p10": -1.7951290981585812e-12,
            "p9": 4.203380790723302e-10,
            "p8": -2.3848192360897457e-08,
            "p7": -1.691689469259317e-06,
            "p6": 0.0002775390214297063,
            "p5": -0.014288104680922849,
            "p4": 0.44322705157803904,
            "p3": 0.05338754249323076,
            "p2": 88.76754051268635
        },
        "sigma1": {
            "p0": 9.558125416702842,
            "p1": 24.156220024239023
        },
        "norm1": {
            "p0": 0.0003010015171470992
        },
        "mean2": {
            "p0": 0.10322952900251249,
            "p1": -0.010171079287601109,
            "p10": -1.7951290981585812e-12,
            "p9": 4.203380790723302e-10,
            "p8": -2.3848192360897457e-08,
            "p7": -1.691689469259317e-06,
            "p6": 0.0002775390214297063,
            "p5": -0.014288104680922849,
            "p4": 0.44322705157803904,
            "p3": 0.05338754249323076,
            "p2": 88.76754051268635
        },
        "sigma2": {
            "p0": 0.03545064044743488
        },
        "norm2": {
            "p0": 0.15998731220189216
        },
        "mean3": {
            "p0": 0.039719512120373855,
            "p1": -0.001444905874603416,
            "p10": -1.7951290981585812e-12,
            "p9": 4.203380790723302e-10,
            "p8": -2.3848192360897457e-08,
            "p7": -1.691689469259317e-06,
            "p6": 0.0002775390214297063,
            "p5": -0.014288104680922849,
            "p4": 0.44322705157803904,
            "p3": 0.05338754249323076,
            "p2": 88.76754051268635
        },
        "sigma3": {
            "p0": 0.037949539409019795
        },
        "norm3": {
            "p0": 0.6945804262209717
        },
        "mean4": {
            "p0": -0.2800686153057655,
            "p1": 0.01473772236320034,
            "p10": -1.7951290981585812e-12,
            "p9": 4.203380790723302e-10,
            "p8": -2.3848192360897457e-08,
            "p7": -1.691689469259317e-06,
            "p6": 0.0002775390214297063,
            "p5": -0.014288104680922849,
            "p4": 0.44322705157803904,
            "p3": 0.05338754249323076,
            "p2": 88.76754051268635
        },
        "sigma4": {
            "p0": 0.013179712700891903
        }
    },
    "stat10_p": {
        "mean1": {
            "p0": -4.0604391034549705,
            "p1": -0.07802224698319225,
            "p10": -1.7951290981585812e-12,
            "p9": 4.203380790723302e-10,
            "p8": -2.3848192360897457e-08,
            "p7": -1.691689469259317e-06,
            "p6": 0.0002775390214297063,
            "p5": -0.014288104680922849,
            "p4": 0.44322705157803904,
            "p3": 0.05338754249323076,
            "p2": 88.76754051268635
        },
        "sigma1": {
            "p0": 9.558125071623712,
            "p1": 24.156219987841872
        },
        "norm1": {
            "p0": 0.000300608511148765
        },
        "mean2": {
            "p0": 0.10326235370897413,
            "p1": -0.009029064024205474,
            "p10": -1.7951290981585812e-12,
            "p9": 4.203380790723302e-10,
            "p8": -2.3848192360897457e-08,
            "p7": -1.691689469259317e-06,
            "p6": 0.0002775390214297063,
            "p5": -0.014288104680922849,
            "p4": 0.44322705157803904,
            "p3": 0.05338754249323076,
            "p2": 88.76754051268635
        },
        "sigma2": {
            "p0": 0.03544633711943459
        },
        "norm2": {
            "p0": 0.15999536967539862
        },
        "mean3": {
            "p0": 0.03970078731797914,
            "p1": -0.0018211738861624784,
            "p10": -1.7951290981585812e-12,
            "p9": 4.203380790723302e-10,
            "p8": -2.3848192360897457e-08,
            "p7": -1.691689469259317e-06,
            "p6": 0.0002775390214297063,
            "p5": -0.014288104680922849,
            "p4": 0.44322705157803904,
            "p3": 0.05338754249323076,
            "p2": 88.76754051268635
        },
        "sigma3": {
            "p0": 0.03795275990599514
        },
        "norm3": {
            "p0": 0.6947061486259718
        },
        "mean4": {
            "p0": -0.2801080125760084,
            "p1": 0.01321303401319892,
            "p10": -1.7951290981585812e-12,
            "p9": 4.203380790723302e-10,
            "p8": -2.3848192360897457e-08,
            "p7": -1.691689469259317e-06,
            "p6": 0.0002775390214297063,
            "p5": -0.014288104680922849,
            "p4": 0.44322705157803904,
            "p3": 0.05338754249323076,
            "p2": 88.76754051268635
        },
        "sigma4": {
            "p0": 0.013179568199315733
        }
    },
    "stat10_m": {
        "mean1": {
            "p0": -4.060439102068627,
            "p1": -0.07802221271873495,
            "p10": -1.7951290981585812e-12,
            "p9": 4.203380790723302e-10,
            "p8": -2.3848192360897457e-08,
            "p7": -1.691689469259317e-06,
            "p6": 0.0002775390214297063,
            "p5": -0.014288104680922849,
            "p4": 0.44322705157803904,
            "p3": 0.05338754249323076,
            "p2": 88.76754051268635
        },
        "sigma1": {
            "p0": 9.558125076902101,
            "p1": 24.15621998835892
        },
        "norm1": {
            "p0": 0.00030074324059584643
        },
        "mean2": {
            "p0": 0.10326629496036507,
            "p1": -0.00886928979020176,
            "p10": -1.7951290981585812e-12,
            "p9": 4.203380790723302e-10,
            "p8": -2.3848192360897457e-08,
            "p7": -1.691689469259317e-06,
            "p6": 0.0002775390214297063,
            "p5": -0.014288104680922849,
            "p4": 0.44322705157803904,
            "p3": 0.05338754249323076,
            "p2": 88.76754051268635
        },
        "sigma2": {
            "p0": 0.03544002048774283
        },
        "norm2": {
            "p0": 0.15999453716238501
        },
        "mean3": {
            "p0": 0.0397169091009792,
            "p1": -0.0011684051801058191,
            "p10": -1.7951290981585812e-12,
            "p9": 4.203380790723302e-10,
            "p8": -2.3848192360897457e-08,
            "p7": -1.691689469259317e-06,
            "p6": 0.0002775390214297063,
            "p5": -0.014288104680922849,
            "p4": 0.44322705157803904,
            "p3": 0.05338754249323076,
            "p2": 88.76754051268635
        },
        "sigma3": {
            "p0": 0.03795504133673806
        },
        "norm3": {
            "p0": 0.6946987543165797
        },
        "mean4": {
            "p0": -0.28010516335568864,
            "p1": 0.01332303831230653,
            "p10": -1.7951290981585812e-12,
            "p9": 4.203380790723302e-10,
            "p8": -2.3848192360897457e-08,
            "p7": -1.691689469259317e-06,
            "p6": 0.0002775390214297063,
            "p5": -0.014288104680922849,
            "p4": 0.44322705157803904,
            "p3": 0.05338754249323076,
            "p2": 88.76754051268635
        },
        "sigma4": {
            "p0": 0.013180670229517903
        }
    },
    "stat11_p": {
        "mean1": {
            "p0": -4.06043910308246,
            "p1": -0.07802223648829004,
            "p10": -1.7951290981585812e-12,
            "p9": 4.203380790723302e-10,
            "p8": -2.3848192360897457e-08,
            "p7": -1.691689469259317e-06,
            "p6": 0.0002775390214297063,
            "p5": -0.014288104680922849,
            "p4": 0.44322705157803904,
            "p3": 0.05338754249323076,
            "p2": 88.76754051268635
        },
        "sigma1": {
            "p0": 9.558125086382738,
            "p1": 24.15621998936226
        },
        "norm1": {
            "p0": 0.0003027369346475337
        },
        "mean2": {
            "p0": 0.10326431314615157,
            "p1": -0.008949267292515668,
            "p10": -1.7951290981585812e-12,
            "p9": 4.203380790723302e-10,
            "p8": -2.3848192360897457e-08,
            "p7": -1.691689469259317e-06,
            "p6": 0.0002775390214297063,
            "p5": -0.014288104680922849,
            "p4": 0.44322705157803904,
            "p3": 0.05338754249323076,
            "p2": 88.76754051268635
        },
        "sigma2": {
            "p0": 0.03518890042519932
        },
        "norm2": {
            "p0": 0.15998467098129615
        },
        "mean3": {
            "p0": 0.03970878696517774,
            "p1": -0.0014978048080096136,
            "p10": -1.7951290981585812e-12,
            "p9": 4.203380790723302e-10,
            "p8": -2.3848192360897457e-08,
            "p7": -1.691689469259317e-06,
            "p6": 0.0002775390214297063,
            "p5": -0.014288104680922849,
            "p4": 0.44322705157803904,
            "p3": 0.05338754249323076,
            "p2": 88.76754051268635
        },
        "sigma3": {
            "p0": 0.03805782605281971
        },
        "norm3": {
            "p0": 0.6946915768196446
        },
        "mean4": {
            "p0": -0.28010659003236976,
            "p1": 0.013268700663924087,
            "p10": -1.7951290981585812e-12,
            "p9": 4.203380790723302e-10,
            "p8": -2.3848192360897457e-08,
            "p7": -1.691689469259317e-06,
            "p6": 0.0002775390214297063,
            "p5": -0.014288104680922849,
            "p4": 0.44322705157803904,
            "p3": 0.05338754249323076,
            "p2": 88.76754051268635
        },
        "sigma4": {
            "p0": 0.01316027205494067
        }
    },
    "stat11_m": {
        "mean1": {
            "p0": -4.060439102441138,
            "p1": -0.07802222321363715,
            "p10": -1.7951290981585812e-12,
            "p9": 4.203380790723302e-10,
            "p8": -2.3848192360897457e-08,
            "p7": -1.691689469259317e-06,
            "p6": 0.0002775390214297063,
            "p5": -0.014288104680922849,
            "p4": 0.44322705157803904,
            "p3": 0.05338754249323076,
            "p2": 88.76754051268635
        },
        "sigma1": {
            "p0": 9.558125062143075,
            "p1": 24.156219986838533
        },
        "norm1": {
            "p0": 0.0002986148170970777
        },
        "mean2": {
            "p0": 0.10326433552318763,
            "p1": -0.00894908652189157,
            "p10": -1.7951290981585812e-12,
            "p9": 4.203380790723302e-10,
            "p8": -2.3848192360897457e-08,
            "p7": -1.691689469259317e-06,
            "p6": 0.0002775390214297063,
            "p5": -0.014288104680922849,
            "p4": 0.44322705157803904,
            "p3": 0.05338754249323076,
            "p2": 88.76754051268635
        },
        "sigma2": {
            "p0": 0.035697457181978094
        },
        "norm2": {
            "p0": 0.16000523585648752
        },
        "mean3": {
            "p0": 0.0397089094537806,
            "p1": -0.001491774258258684,
            "p10": -1.7951290981585812e-12,
            "p9": 4.203380790723302e-10,
            "p8": -2.3848192360897457e-08,
            "p7": -1.691689469259317e-06,
            "p6": 0.0002775390214297063,
            "p5": -0.014288104680922849,
            "p4": 0.44322705157803904,
            "p3": 0.05338754249323076,
            "p2": 88.76754051268635
        },
        "sigma3": {
            "p0": 0.037849975189913496
        },
        "norm3": {
            "p0": 0.6947133261229068
        },
        "mean4": {
            "p0": -0.2801065858993273,
            "p1": 0.013267371661581366,
            "p10": -1.7951290981585812e-12,
            "p9": 4.203380790723302e-10,
            "p8": -2.3848192360897457e-08,
            "p7": -1.691689469259317e-06,
            "p6": 0.0002775390214297063,
            "p5": -0.014288104680922849,
            "p4": 0.44322705157803904,
            "p3": 0.05338754249323076,
            "p2": 88.76754051268635
        },
        "sigma4": {
            "p0": 0.013199966373892966
        }
    },
    "stat12_p": {
        "mean1": {
            "p0": -4.060439102743771,
            "p1": -0.07802222956512149,
            "p10": -1.7951290981585812e-12,
            "p9": 4.203380790723302e-10,
            "p8": -2.3848192360897457e-08,
            "p7": -1.691689469259317e-06,
            "p6": 0.0002775390214297063,
            "p5": -0.014288104680922849,
            "p4": 0.44322705157803904,
            "p3": 0.05338754249323076,
            "p2": 88.76754051268635
        },
        "sigma1": {
            "p0": 9.558125073441014,
            "p1": 24.156219988002036
        },
        "norm1": {
            "p0": 0.0002914324844587974
        },
        "mean2": {
            "p0": 0.10326432452002551,
            "p1": -0.008949161031557165,
            "p10": -1.7951290981585812e-12,
            "p9": 4.203380790723302e-10,
            "p8": -2.3848192360897457e-08,
            "p7": -1.691689469259317e-06,
            "p6": 0.0002775390214297063,
            "p5": -0.014288104680922849,
            "p4": 0.44322705157803904,
            "p3": 0.05338754249323076,
            "p2": 88.76754051268635
        },
        "sigma2": {
            "p0": 0.03544114405366804
        },
        "norm2": {
            "p0": 0.1599868386349198
        },
        "mean3": {
            "p0": 0.039708848825572594,
            "p1": -0.0014947429405162067,
            "p10": -1.7951290981585812e-12,
            "p9": 4.203380790723302e-10,
            "p8": -2.3848192360897457e-08,
            "p7": -1.691689469259317e-06,
            "p6": 0.0002775390214297063,
            "p5": -0.014288104680922849,
            "p4": 0.44322705157803904,
            "p3": 0.05338754249323076,
            "p2": 88.76754051268635
        },
        "sigma3": {
            "p0": 0.03794413824860369
        },
        "norm3": {
            "p0": 0.6947032001617214
        },
        "mean4": {
            "p0": -0.2801065876830497,
            "p1": 0.013268045007093105,
            "p10": -1.7951290981585812e-12,
            "p9": 4.203380790723302e-10,
            "p8": -2.3848192360897457e-08,
            "p7": -1.691689469259317e-06,
            "p6": 0.0002775390214297063,
            "p5": -0.014288104680922849,
            "p4": 0.44322705157803904,
            "p3": 0.05338754249323076,
            "p2": 88.76754051268635
        },
        "sigma4": {
            "p0": 0.013157896631255276
        }
    },
    "stat12_m": {
        "mean1": {
            "p0": -4.060439102779827,
            "p1": -0.0780222301368057,
            "p10": -1.7951290981585812e-12,
            "p9": 4.203380790723302e-10,
            "p8": -2.3848192360897457e-08,
            "p7": -1.691689469259317e-06,
            "p6": 0.0002775390214297063,
            "p5": -0.014288104680922849,
            "p4": 0.44322705157803904,
            "p3": 0.05338754249323076,
            "p2": 88.76754051268635
        },
        "sigma1": {
            "p0": 9.558125075084796,
            "p1": 24.156219988198757
        },
        "norm1": {
            "p0": 0.0003099192672858175
        },
        "mean2": {
            "p0": 0.10326432414931369,
            "p1": -0.00894919278285007,
            "p10": -1.7951290981585812e-12,
            "p9": 4.203380790723302e-10,
            "p8": -2.3848192360897457e-08,
            "p7": -1.691689469259317e-06,
            "p6": 0.0002775390214297063,
            "p5": -0.014288104680922849,
            "p4": 0.44322705157803904,
            "p3": 0.05338754249323076,
            "p2": 88.76754051268635
        },
        "sigma2": {
            "p0": 0.035445213553509373
        },
        "norm2": {
            "p0": 0.16000306820286384
        },
        "mean3": {
            "p0": 0.039708847593385735,
            "p1": -0.0014948361257520913,
            "p10": -1.7951290981585812e-12,
            "p9": 4.203380790723302e-10,
            "p8": -2.3848192360897457e-08,
            "p7": -1.691689469259317e-06,
            "p6": 0.0002775390214297063,
            "p5": -0.014288104680922849,
            "p4": 0.44322705157803904,
            "p3": 0.05338754249323076,
            "p2": 88.76754051268635
        },
        "sigma3": {
            "p0": 0.037963662994129524
        },
        "norm3": {
            "p0": 0.69470170278083
        },
        "mean4": {
            "p0": -0.2801065882486474,
            "p1": 0.013268027318412345,
            "p10": -1.7951290981585812e-12,
            "p9": 4.203380790723302e-10,
            "p8": -2.3848192360897457e-08,
            "p7": -1.691689469259317e-06,
            "p6": 0.0002775390214297063,
            "p5": -0.014288104680922849,
            "p4": 0.44322705157803904,
            "p3": 0.05338754249323076,
            "p2": 88.76754051268635
        },
        "sigma4": {
            "p0": 0.01320234179757836
        }
    },
    "stat13_p": {
        "mean1": {
            "p0": -4.060439102664543,
            "p1": -0.07802222821856246,
            "p10": -1.7951290981585812e-12,
            "p9": 4.203380790723302e-10,
            "p8": -2.3848192360897457e-08,
            "p7": -1.691689469259317e-06,
            "p6": 0.0002775390214297063,
            "p5": -0.014288104680922849,
            "p4": 0.44322705157803904,
            "p3": 0.05338754249323076,
            "p2": 88.76754051268635
        },
        "sigma1": {
            "p0": 9.558125069753041,
            "p1": 24.156219987586052
        },
        "norm1": {
            "p0": 0.00026819390496388867
        },
        "mean2": {
            "p0": 0.10326432427099412,
            "p1": -0.008949187652129889,
            "p10": -1.7951290981585812e-12,
            "p9": 4.203380790723302e-10,
            "p8": -2.3848192360897457e-08,
            "p7": -1.691689469259317e-06,
            "p6": 0.0002775390214297063,
            "p5": -0.014288104680922849,
            "p4": 0.44322705157803904,
            "p3": 0.05338754249323076,
            "p2": 88.76754051268635
        },
        "sigma2": {
            "p0": 0.03544481578004047
        },
        "norm2": {
            "p0": 0.15999639406240862
        },
        "mean3": {
            "p0": 0.039708848758331916,
            "p1": -0.0014948057515586518,
            "p10": -1.7951290981585812e-12,
            "p9": 4.203380790723302e-10,
            "p8": -2.3848192360897457e-08,
            "p7": -1.691689469259317e-06,
            "p6": 0.0002775390214297063,
            "p5": -0.014288104680922849,
            "p4": 0.44322705157803904,
            "p3": 0.05338754249323076,
            "p2": 88.76754051268635
        },
        "sigma3": {
            "p0": 0.0379605720937004
        },
        "norm3": {
            "p0": 0.6947023491814426
        },
        "mean4": {
            "p0": -0.2801065870810337,
            "p1": 0.013268048169102846,
            "p10": -1.7951290981585812e-12,
            "p9": 4.203380790723302e-10,
            "p8": -2.3848192360897457e-08,
            "p7": -1.691689469259317e-06,
            "p6": 0.0002775390214297063,
            "p5": -0.014288104680922849,
            "p4": 0.44322705157803904,
            "p3": 0.05338754249323076,
            "p2": 88.76754051268635
        },
        "sigma4": {
            "p0": 0.013190019747688353
        }
    },
    "stat13_m": {
        "mean1": {
            "p0": -4.060439102859054,
            "p1": -0.07802223148336473,
            "p10": -1.7951290981585812e-12,
            "p9": 4.203380790723302e-10,
            "p8": -2.3848192360897457e-08,
            "p7": -1.691689469259317e-06,
            "p6": 0.0002775390214297063,
            "p5": -0.014288104680922849,
            "p4": 0.44322705157803904,
            "p3": 0.05338754249323076,
            "p2": 88.76754051268635
        },
        "sigma1": {
            "p0": 9.55812507877277,
            "p1": 24.15621998861474
        },
        "norm1": {
            "p0": 0.0003331578467807262
        },
        "mean2": {
            "p0": 0.10326432439834508,
            "p1": -0.008949166162277346,
            "p10": -1.7951290981585812e-12,
            "p9": 4.203380790723302e-10,
            "p8": -2.3848192360897457e-08,
            "p7": -1.691689469259317e-06,
            "p6": 0.0002775390214297063,
            "p5": -0.014288104680922849,
            "p4": 0.44322705157803904,
            "p3": 0.05338754249323076,
            "p2": 88.76754051268635
        },
        "sigma2": {
            "p0": 0.03544154182713695
        },
        "norm2": {
            "p0": 0.159993512775375
        },
        "mean3": {
            "p0": 0.03970884766062642,
            "p1": -0.001494773314709646,
            "p10": -1.7951290981585812e-12,
            "p9": 4.203380790723302e-10,
            "p8": -2.3848192360897457e-08,
            "p7": -1.691689469259317e-06,
            "p6": 0.0002775390214297063,
            "p5": -0.014288104680922849,
            "p4": 0.44322705157803904,
            "p3": 0.05338754249323076,
            "p2": 88.76754051268635
        },
        "sigma3": {
            "p0": 0.037947229149032806
        },
        "norm3": {
            "p0": 0.6947025537611089
        },
        "mean4": {
            "p0": -0.2801065888506634,
            "p1": 0.013268024156402604,
            "p10": -1.7951290981585812e-12,
            "p9": 4.203380790723302e-10,
            "p8": -2.3848192360897457e-08,
            "p7": -1.691689469259317e-06,
            "p6": 0.0002775390214297063,
            "p5": -0.014288104680922849,
            "p4": 0.44322705157803904,
            "p3": 0.05338754249323076,
            "p2": 88.76754051268635
        },
        "sigma4": {
            "p0": 0.013170218681145282
        }
    },
    "stat14_p": {
        "mean1": {
            "p0": -4.060439102764876,
            "p1": -0.07802222991260646,
            "p10": -1.7951290981585812e-12,
            "p9": 4.203380790723302e-10,
            "p8": -2.3848192360897457e-08,
            "p7": -1.691689469259317e-06,
            "p6": 0.0002775390214297063,
            "p5": -0.014288104680922849,
            "p4": 0.44322705157803904,
            "p3": 0.05338754249323076,
            "p2": 88.76754051268635
        },
        "sigma1": {
            "p0": 9.558125074417104,
            "p1": 24.156219988089852
        },
        "norm1": {
            "p0": 0.0003016702115226507
        },
        "mean2": {
            "p0": 0.10326432444822667,
            "p1": -0.008949172681175606,
            "p10": -1.7951290981585812e-12,
            "p9": 4.203380790723302e-10,
            "p8": -2.3848192360897457e-08,
            "p7": -1.691689469259317e-06,
            "p6": 0.0002775390214297063,
            "p5": -0.014288104680922849,
            "p4": 0.44322705157803904,
            "p3": 0.05338754249323076,
            "p2": 88.76754051268635
        },
        "sigma2": {
            "p0": 0.03543501823808844
        },
        "norm2": {
            "p0": 0.1599552163156024
        },
        "mean3": {
            "p0": 0.03970884677974027,
            "p1": -0.0014948636465901416,
            "p10": -1.7951290981585812e-12,
            "p9": 4.203380790723302e-10,
            "p8": -2.3848192360897457e-08,
            "p7": -1.691689469259317e-06,
            "p6": 0.0002775390214297063,
            "p5": -0.014288104680922849,
            "p4": 0.44322705157803904,
            "p3": 0.05338754249323076,
            "p2": 88.76754051268635
        },
        "sigma3": {
            "p0": 0.03793469075483169
        },
        "norm3": {
            "p0": 0.6947048272534576
        },
        "mean4": {
            "p0": -0.28010658808475886,
            "p1": 0.013268023531920147,
            "p10": -1.7951290981585812e-12,
            "p9": 4.203380790723302e-10,
            "p8": -2.3848192360897457e-08,
            "p7": -1.691689469259317e-06,
            "p6": 0.0002775390214297063,
            "p5": -0.014288104680922849,
            "p4": 0.44322705157803904,
            "p3": 0.05338754249323076,
            "p2": 88.76754051268635
        },
        "sigma4": {
            "p0": 0.01320348197049898
        }
    },
    "stat14_m": {
        "mean1": {
            "p0": -4.060439102758722,
            "p1": -0.07802222978932073,
            "p10": -1.7951290981585812e-12,
            "p9": 4.203380790723302e-10,
            "p8": -2.3848192360897457e-08,
            "p7": -1.691689469259317e-06,
            "p6": 0.0002775390214297063,
            "p5": -0.014288104680922849,
            "p4": 0.44322705157803904,
            "p3": 0.05338754249323076,
            "p2": 88.76754051268635
        },
        "sigma1": {
            "p0": 9.558125074108705,
            "p1": 24.156219988110937
        },
        "norm1": {
            "p0": 0.0002996815402219607
        },
        "mean2": {
            "p0": 0.10326432422111254,
            "p1": -0.00894918113323163,
            "p10": -1.7951290981585812e-12,
            "p9": 4.203380790723302e-10,
            "p8": -2.3848192360897457e-08,
            "p7": -1.691689469259317e-06,
            "p6": 0.0002775390214297063,
            "p5": -0.014288104680922849,
            "p4": 0.44322705157803904,
            "p3": 0.05338754249323076,
            "p2": 88.76754051268635
        },
        "sigma2": {
            "p0": 0.03545133936908897
        },
        "norm2": {
            "p0": 0.16003469052218128
        },
        "mean3": {
            "p0": 0.03970884963921806,
            "p1": -0.0014947154196781561,
            "p10": -1.7951290981585812e-12,
            "p9": 4.203380790723302e-10,
            "p8": -2.3848192360897457e-08,
            "p7": -1.691689469259317e-06,
            "p6": 0.0002775390214297063,
            "p5": -0.014288104680922849,
            "p4": 0.44322705157803904,
            "p3": 0.05338754249323076,
            "p2": 88.76754051268635
        },
        "sigma3": {
            "p0": 0.03797311048790152
        },
        "norm3": {
            "p0": 0.6947000756890939
        },
        "mean4": {
            "p0": -0.28010658784693826,
            "p1": 0.013268048793585304,
            "p10": -1.7951290981585812e-12,
            "p9": 4.203380790723302e-10,
            "p8": -2.3848192360897457e-08,
            "p7": -1.691689469259317e-06,
            "p6": 0.0002775390214297063,
            "p5": -0.014288104680922849,
            "p4": 0.44322705157803904,
            "p3": 0.05338754249323076,
            "p2": 88.76754051268635
        },
        "sigma4": {
            "p0": 0.013156756458334655
        }
    },
    "stat15_p": {
        "mean1": {
            "p0": -4.060439102855094,
            "p1": -0.07802223159051967,
            "p10": -1.7951290981585812e-12,
            "p9": 4.203380790723302e-10,
            "p8": -2.3848192360897457e-08,
            "p7": -1.691689469259317e-06,
            "p6": 0.0002775390214297063,
            "p5": -0.014288104680922849,
            "p4": 0.44322705157803904,
            "p3": 0.05338754249323076,
            "p2": 88.76754051268635
        },
        "sigma1": {
            "p0": 9.558125078337257,
            "p1": 24.156219988489955
        },
        "norm1": {
            "p0": 0.0003075675903247007
        },
        "mean2": {
            "p0": 0.10326432318060191,
            "p1": -0.00894925977977645,
            "p10": -1.7951290981585812e-12,
            "p9": 4.203380790723302e-10,
            "p8": -2.3848192360897457e-08,
            "p7": -1.691689469259317e-06,
            "p6": 0.0002775390214297063,
            "p5": -0.014288104680922849,
            "p4": 0.44322705157803904,
            "p3": 0.05338754249323076,
            "p2": 88.76754051268635
        },
        "sigma2": {
            "p0": 0.035470315956709485
        },
        "norm2": {
            "p0": 0.15995188289255236
        },
        "mean3": {
            "p0": 0.039708846791421094,
            "p1": -0.0014947094020721302,
            "p10": -1.7951290981585812e-12,
            "p9": 4.203380790723302e-10,
            "p8": -2.3848192360897457e-08,
            "p7": -1.691689469259317e-06,
            "p6": 0.0002775390214297063,
            "p5": -0.014288104680922849,
            "p4": 0.44322705157803904,
            "p3": 0.05338754249323076,
            "p2": 88.76754051268635
        },
        "sigma3": {
            "p0": 0.038013296367282894
        },
        "norm3": {
            "p0": 0.6947060136804645
        },
        "mean4": {
            "p0": -0.2801065882850559,
            "p1": 0.013268069002379094,
            "p10": -1.7951290981585812e-12,
            "p9": 4.203380790723302e-10,
            "p8": -2.3848192360897457e-08,
            "p7": -1.691689469259317e-06,
            "p6": 0.0002775390214297063,
            "p5": -0.014288104680922849,
            "p4": 0.44322705157803904,
            "p3": 0.05338754249323076,
            "p2": 88.76754051268635
        },
        "sigma4": {
            "p0": 0.013164523105174823
        }
    },
    "stat15_m": {
        "mean1": {
            "p0": -4.0604391026685045,
            "p1": -0.07802222811140752,
            "p10": -1.7951290981585812e-12,
            "p9": 4.203380790723302e-10,
            "p8": -2.3848192360897457e-08,
            "p7": -1.691689469259317e-06,
            "p6": 0.0002775390214297063,
            "p5": -0.014288104680922849,
            "p4": 0.44322705157803904,
            "p3": 0.05338754249323076,
            "p2": 88.76754051268635
        },
        "sigma1": {
            "p0": 9.558125070188554,
            "p1": 24.156219987710838
        },
        "norm1": {
            "p0": 0.0002937841614199107
        },
        "mean2": {
            "p0": 0.10326432548873728,
            "p1": -0.008949094034630786,
            "p10": -1.7951290981585812e-12,
            "p9": 4.203380790723302e-10,
            "p8": -2.3848192360897457e-08,
            "p7": -1.691689469259317e-06,
            "p6": 0.0002775390214297063,
            "p5": -0.014288104680922849,
            "p4": 0.44322705157803904,
            "p3": 0.05338754249323076,
            "p2": 88.76754051268635
        },
        "sigma2": {
            "p0": 0.03541604165046793
        },
        "norm2": {
            "p0": 0.16003802394523126
        },
        "mean3": {
            "p0": 0.039708849627537235,
            "p1": -0.0014948696641961675,
            "p10": -1.7951290981585812e-12,
            "p9": 4.203380790723302e-10,
            "p8": -2.3848192360897457e-08,
            "p7": -1.691689469259317e-06,
            "p6": 0.0002775390214297063,
            "p5": -0.014288104680922849,
            "p4": 0.44322705157803904,
            "p3": 0.05338754249323076,
            "p2": 88.76754051268635
        },
        "sigma3": {
            "p0": 0.037894504875450305
        },
        "norm3": {
            "p0": 0.6946988892620869
        },
        "mean4": {
            "p0": -0.2801065876466412,
            "p1": 0.013268003323126358,
            "p10": -1.7951290981585812e-12,
            "p9": 4.203380790723302e-10,
            "p8": -2.3848192360897457e-08,
            "p7": -1.691689469259317e-06,
            "p6": 0.0002775390214297063,
            "p5": -0.014288104680922849,
            "p4": 0.44322705157803904,
            "p3": 0.05338754249323076,
            "p2": 88.76754051268635
        },
        "sigma4": {
            "p0": 0.013195715323658812
        }
    }
}