{
    "nGauss": 4,
    "mean1": {
        "nParams": 4,
        "func": "([0] + [1]*x) + ([2] + [3]*x)",
        "p0": 0.001153208118928979,
        "p0_err": [
            null,
            null
        ],
        "p1": -0.00038895929200926977,
        "p1_err": [
            null,
            null
        ],
        "p3": -0.0003940765866852298,
        "p3_err": 0.00030598714449187384,
        "p3_isCte": false,
        "p2": -0.010754425856232944,
        "p2_err": 0.008715638722121994,
        "p2_isCte": false
    },
    "sigma1": {
        "nParams": 3,
        "func": "[0]*TMath::Power(x, [1]) + [2]",
        "p0": 0.011301898613655343,
        "p0_err": [
            null,
            null
        ],
        "p1": 1.5666691858249038,
        "p1_err": [
            null,
            null
        ],
        "p2": 34.31143043604229
    },
    "norm1": {
        "nParams": 1,
        "func": "[0]",
        "p0": 0.00499268982219166,
        "p0_err": [
            null,
            null
        ]
    },
    "mean2": {
        "nParams": 4,
        "func": "([0] + [1]*x) + ([2] + [3]*x)",
        "p0": -0.02374682269222423,
        "p0_err": [
            null,
            null
        ],
        "p1": -0.0004728774041912518,
        "p1_err": [
            null,
            null
        ],
        "p3": -0.0003940765866852298,
        "p3_err": 0.00030598714449187384,
        "p3_isCte": false,
        "p2": -0.010754425856232944,
        "p2_err": 0.008715638722121994,
        "p2_isCte": false
    },
    "sigma2": {
        "nParams": 3,
        "func": "[0]*TMath::Power(x, [1]) + [2]",
        "p0": 0.20260432604219542,
        "p0_err": [
            null,
            null
        ],
        "p1": -3.797210278682827,
        "p2": 7.457752613829269
    },
    "norm2": {
        "nParams": 1,
        "func": "[0]",
        "p0": 0.014138991798106527,
        "p0_err": [
            null,
            null
        ]
    },
    "mean3": {
        "nParams": 4,
        "func": "([0] + [1]*x) + ([2] + [3]*x)",
        "p0": 0.001153208118928979,
        "p0_err": [
            null,
            null
        ],
        "p1": -0.00038895929200926977,
        "p1_err": [
            null,
            null
        ],
        "p3": -0.0003940765866852298,
        "p3_err": 0.00030598714449187384,
        "p3_isCte": false,
        "p2": -0.010754425856232944,
        "p2_err": 0.008715638722121994,
        "p2_isCte": false
    },
    "sigma3": {
        "nParams": 3,
        "func": "[0]*TMath::Power(x, [1]) + [2]",
        "p0": 0.07836463257654613,
        "p0_err": [
            null,
            null
        ],
        "p1": 0.6571579723236581,
        "p2": 15.638044634689455
    },
    "norm3": {
        "nParams": 1,
        "func": "[0]",
        "p0": 0.5458686342742759,
        "p0_err": [
            null,
            null
        ]
    },
    "mean4": {
        "nParams": 4,
        "func": "([0] + [1]*x) + ([2] + [3]*x)",
        "p0": -0.02374682269222423,
        "p0_err": [
            null,
            null
        ],
        "p1": -0.0004728774041912518,
        "p1_err": [
            null,
            null
        ],
        "p3": -0.0003940765866852298,
        "p3_err": 0.00030598714449187384,
        "p3_isCte": false,
        "p2": -0.010754425856232944,
        "p2_err": 0.008715638722121994,
        "p2_isCte": false
    },
    "sigma4": {
        "nParams": 3,
        "func": "[0]*TMath::Power(x, [1]) + [2]",
        "p0": 0.025954491629736568,
        "p0_err": [
            null,
            null
        ],
        "p1": 0.9394487790299447,
        "p2": 22.014336151647274
    },
    "nStatVars": 12,
    "stat0_p": {
        "mean1": {
            "p0": 0.0012599958952181354,
            "p1": -0.0003920170328024034,
            "p3": -0.0003940765866852298,
            "p2": -0.010754425856232944
        },
        "sigma1": {
            "p0": 0.01138285536627897,
            "p1": 35.146209929931715
        },
        "norm1": {
            "p0": 0.004272602891408267
        },
        "mean2": {
            "p0": -0.02388917092003349,
            "p1": -0.00046742809594956983,
            "p3": -0.0003940765866852298,
            "p2": -0.010754425856232944
        },
        "sigma2": {
            "p0": 0.19998272215960936
        },
        "norm2": {
            "p0": 0.014177007706213968
        },
        "mean3": {
            "p0": 0.0012599958952181354,
            "p1": -0.0003920170328024034,
            "p3": -0.0003940765866852298,
            "p2": -0.010754425856232944
        },
        "sigma3": {
            "p0": 0.07806875716673636
        },
        "norm3": {
            "p0": 0.5461098773477742
        },
        "mean4": {
            "p0": -0.02388917092003349,
            "p1": -0.00046742809594956983,
            "p3": -0.0003940765866852298,
            "p2": -0.010754425856232944
        },
        "sigma4": {
            "p0": 0.026046848923758553
        }
    },
    "stat0_m": {
        "mean1": {
            "p0": 0.0010464203426398218,
            "p1": -0.00038590155121613655,
            "p3": -0.0003940765866852298,
            "p2": -0.010754425856232944
        },
        "sigma1": {
            "p0": 0.0112209418610318,
            "p1": 33.47665094215287
        },
        "norm1": {
            "p0": 0.0057127767529751156
        },
        "mean2": {
            "p0": -0.023604474464414972,
            "p1": -0.0004783267124329337,
            "p3": -0.0003940765866852298,
            "p2": -0.010754425856232944
        },
        "sigma2": {
            "p0": 0.20522592992478159
        },
        "norm2": {
            "p0": 0.01410097588999909
        },
        "mean3": {
            "p0": 0.0010464203426398218,
            "p1": -0.00038590155121613655,
            "p3": -0.0003940765866852298,
            "p2": -0.010754425856232944
        },
        "sigma3": {
            "p0": 0.07866050798635599
        },
        "norm3": {
            "p0": 0.5456273912007777
        },
        "mean4": {
            "p0": -0.023604474464414972,
            "p1": -0.0004783267124329337,
            "p3": -0.0003940765866852298,
            "p2": -0.010754425856232944
        },
        "sigma4": {
            "p0": 0.02586213433571455
        }
    },
    "stat1_p": {
        "mean1": {
            "p0": 0.00115120562761049,
            "p1": -0.0003886291549433234,
            "p3": -0.0003940765866852298,
            "p2": -0.010754425856232944
        },
        "sigma1": {
            "p0": 0.011304778860126694,
            "p1": 34.311282705321005
        },
        "norm1": {
            "p0": 0.004979604023799388
        },
        "mean2": {
            "p0": -0.02374773864174171,
            "p1": -0.0004733393591359909,
            "p3": -0.0003940765866852298,
            "p2": -0.010754425856232944
        },
        "sigma2": {
            "p0": 0.15557329016209837
        },
        "norm2": {
            "p0": 0.01416589624142267
        },
        "mean3": {
            "p0": 0.00115120562761049,
            "p1": -0.0003886291549433234,
            "p3": -0.0003940765866852298,
            "p2": -0.010754425856232944
        },
        "sigma3": {
            "p0": 0.07834128343000689
        },
        "norm3": {
            "p0": 0.54590329496057
        },
        "mean4": {
            "p0": -0.02374773864174171,
            "p1": -0.0004733393591359909,
            "p3": -0.0003940765866852298,
            "p2": -0.010754425856232944
        },
        "sigma4": {
            "p0": 0.02595415053245459
        }
    },
    "stat1_m": {
        "mean1": {
            "p0": 0.0011552106102474672,
            "p1": -0.00038928942907521657,
            "p3": -0.0003940765866852298,
            "p2": -0.010754425856232944
        },
        "sigma1": {
            "p0": 0.011299018367184076,
            "p1": 34.31157816676359
        },
        "norm1": {
            "p0": 0.005005775620583994
        },
        "mean2": {
            "p0": -0.023745906742706754,
            "p1": -0.00047241544924651267,
            "p3": -0.0003940765866852298,
            "p2": -0.010754425856232944
        },
        "sigma2": {
            "p0": 0.24963536192229252
        },
        "norm2": {
            "p0": 0.014112087354790415
        },
        "mean3": {
            "p0": 0.0011552106102474672,
            "p1": -0.00038928942907521657,
            "p3": -0.0003940765866852298,
            "p2": -0.010754425856232944
        },
        "sigma3": {
            "p0": 0.07838798172308545
        },
        "norm3": {
            "p0": 0.5458339735879818
        },
        "mean4": {
            "p0": -0.023745906742706754,
            "p1": -0.00047241544924651267,
            "p3": -0.0003940765866852298,
            "p2": -0.010754425856232944
        },
        "sigma4": {
            "p0": 0.02595483272701854
        }
    },
    "stat2_p": {
        "mean1": {
            "p0": 0.024388145124831,
            "p1": -0.0009270883467437481,
            "p3": -0.0003940765866852298,
            "p2": -0.010754425856232944
        },
        "sigma1": {
            "p0": 0.011301948931795848,
            "p1": 34.31142194809275
        },
        "norm1": {
            "p0": 0.004991433988615658
        },
        "mean2": {
            "p0": -0.05603595580150531,
            "p1": 0.0002846546204180723,
            "p3": -0.0003940765866852298,
            "p2": -0.010754425856232944
        },
        "sigma2": {
            "p0": 0.20260398417715442
        },
        "norm2": {
            "p0": 0.014142180400529059
        },
        "mean3": {
            "p0": 0.024388145124831,
            "p1": -0.0009270883467437481,
            "p3": -0.0003940765866852298,
            "p2": -0.010754425856232944
        },
        "sigma3": {
            "p0": 0.07836455269375771
        },
        "norm3": {
            "p0": 0.5458698987522711
        },
        "mean4": {
            "p0": -0.05603595580150531,
            "p1": 0.0002846546204180723,
            "p3": -0.0003940765866852298,
            "p2": -0.010754425856232944
        },
        "sigma4": {
            "p0": 0.025954817390141216
        }
    },
    "stat2_m": {
        "mean1": {
            "p0": -0.02208172888697305,
            "p1": 0.0001491697627252083,
            "p3": -0.0003940765866852298,
            "p2": -0.010754425856232944
        },
        "sigma1": {
            "p0": 0.011301848295514921,
            "p1": 34.31143892399183
        },
        "norm1": {
            "p0": 0.004993945655767721
        },
        "mean2": {
            "p0": 0.008542310417056848,
            "p1": -0.001230409428800576,
            "p3": -0.0003940765866852298,
            "p2": -0.010754425856232944
        },
        "sigma2": {
            "p0": 0.20260466790723652
        },
        "norm2": {
            "p0": 0.014135803195683999
        },
        "mean3": {
            "p0": -0.02208172888697305,
            "p1": 0.0001491697627252083,
            "p3": -0.0003940765866852298,
            "p2": -0.010754425856232944
        },
        "sigma3": {
            "p0": 0.07836471245933463
        },
        "norm3": {
            "p0": 0.5458673697962807
        },
        "mean4": {
            "p0": 0.008542310417056848,
            "p1": -0.001230409428800576,
            "p3": -0.0003940765866852298,
            "p2": -0.010754425856232944
        },
        "sigma4": {
            "p0": 0.025954165869331913
        }
    },
    "stat3_p": {
        "mean1": {
            "p0": 0.01096073998253494,
            "p1": -0.0006015965814076092,
            "p3": -0.0003940765866852298,
            "p2": -0.010754425856232944
        },
        "sigma1": {
            "p0": 0.011301782791107322,
            "p1": 34.31143038400166
        },
        "norm1": {
            "p0": 0.0049929609268749495
        },
        "mean2": {
            "p0": -0.01669004188125477,
            "p1": -0.0006503938450528212,
            "p3": -0.0003940765866852298,
            "p2": -0.010754425856232944
        },
        "sigma2": {
            "p0": 0.20260377043367628
        },
        "norm2": {
            "p0": 0.014138508413855555
        },
        "mean3": {
            "p0": 0.01096073998253494,
            "p1": -0.0006015965814076092,
            "p3": -0.0003940765866852298,
            "p2": -0.010754425856232944
        },
        "sigma3": {
            "p0": 0.07836509839319403
        },
        "norm3": {
            "p0": 0.5458680733756722
        },
        "mean4": {
            "p0": -0.01669004188125477,
            "p1": -0.0006503938450528212,
            "p3": -0.0003940765866852298,
            "p2": -0.010754425856232944
        },
        "sigma4": {
            "p0": 0.025954435937368875
        }
    },
    "stat3_m": {
        "mean1": {
            "p0": -0.008654323744676985,
            "p1": -0.0001763220026109307,
            "p3": -0.0003940765866852298,
            "p2": -0.010754425856232944
        },
        "sigma1": {
            "p0": 0.011302014436203454,
            "p1": 34.311430488082934
        },
        "norm1": {
            "p0": 0.00499241871750843
        },
        "mean2": {
            "p0": -0.030803603503193694,
            "p1": -0.0002953609633296823,
            "p3": -0.0003940765866852298,
            "p2": -0.010754425856232944
        },
        "sigma2": {
            "p0": 0.20260488165071466
        },
        "norm2": {
            "p0": 0.014139475182357503
        },
        "mean3": {
            "p0": -0.008654323744676985,
            "p1": -0.0001763220026109307,
            "p3": -0.0003940765866852298,
            "p2": -0.010754425856232944
        },
        "sigma3": {
            "p0": 0.07836416675989832
        },
        "norm3": {
            "p0": 0.5458691951728797
        },
        "mean4": {
            "p0": -0.030803603503193694,
            "p1": -0.0002953609633296823,
            "p3": -0.0003940765866852298,
            "p2": -0.010754425856232944
        },
        "sigma4": {
            "p0": 0.025954547322104254
        }
    },
    "stat4_p": {
        "mean1": {
            "p0": 0.0011398023837292652,
            "p1": -0.0010258194222977318,
            "p3": -0.0003940765866852298,
            "p2": -0.010754425856232944
        },
        "sigma1": {
            "p0": 0.011301297649494599,
            "p1": 34.31143043503094
        },
        "norm1": {
            "p0": 0.004993304195854482
        },
        "mean2": {
            "p0": -0.02372472874668483,
            "p1": 0.000427657617957326,
            "p3": -0.0003940765866852298,
            "p2": -0.010754425856232944
        },
        "sigma2": {
            "p0": 0.2026043073494256
        },
        "norm2": {
            "p0": 0.014133482829086608
        },
        "mean3": {
            "p0": 0.0011398023837292652,
            "p1": -0.0010258194222977318,
            "p3": -0.0003940765866852298,
            "p2": -0.010754425856232944
        },
        "sigma3": {
            "p0": 0.07836545872362635
        },
        "norm3": {
            "p0": 0.5458662616599204
        },
        "mean4": {
            "p0": -0.02372472874668483,
            "p1": 0.000427657617957326,
            "p3": -0.0003940765866852298,
            "p2": -0.010754425856232944
        },
        "sigma4": {
            "p0": 0.02595486517244555
        }
    },
    "stat4_m": {
        "mean1": {
            "p0": 0.0011666138541286922,
            "p1": 0.00024790083827919205,
            "p3": -0.0003940765866852298,
            "p2": -0.010754425856232944
        },
        "sigma1": {
            "p0": 0.01130249957781617,
            "p1": 34.31143043705364
        },
        "norm1": {
            "p0": 0.0049920754485289
        },
        "mean2": {
            "p0": -0.023768916637763635,
            "p1": -0.0013734124263398298,
            "p3": -0.0003940765866852298,
            "p2": -0.010754425856232944
        },
        "sigma2": {
            "p0": 0.2026043447349653
        },
        "norm2": {
            "p0": 0.014144500767126506
        },
        "mean3": {
            "p0": 0.0011666138541286922,
            "p1": 0.00024790083827919205,
            "p3": -0.0003940765866852298,
            "p2": -0.010754425856232944
        },
        "sigma3": {
            "p0": 0.07836380642946597
        },
        "norm3": {
            "p0": 0.5458710068886315
        },
        "mean4": {
            "p0": -0.023768916637763635,
            "p1": -0.0013734124263398298,
            "p3": -0.0003940765866852298,
            "p2": -0.010754425856232944
        },
        "sigma4": {
            "p0": 0.025954118087027578
        }
    },
    "stat5_p": {
        "mean1": {
            "p0": 0.001153203786542782,
            "p1": -0.0003900123175089666,
            "p3": -0.0003940765866852298,
            "p2": -0.010754425856232944
        },
        "sigma1": {
            "p0": 0.011327345160501982,
            "p1": 34.31143003738075
        },
        "norm1": {
            "p0": 0.004838951439858005
        },
        "mean2": {
            "p0": -0.023746744732783202,
            "p1": -0.0004715341991215406,
            "p3": -0.0003940765866852298,
            "p2": -0.010754425856232944
        },
        "sigma2": {
            "p0": 0.20260488730819962
        },
        "norm2": {
            "p0": 0.014282735337548619
        },
        "mean3": {
            "p0": 0.001153203786542782,
            "p1": -0.0003900123175089666,
            "p3": -0.0003940765866852298,
            "p2": -0.010754425856232944
        },
        "sigma3": {
            "p0": 0.0778593637616648
        },
        "norm3": {
            "p0": 0.5461171400421168
        },
        "mean4": {
            "p0": -0.023746744732783202,
            "p1": -0.0004715341991215406,
            "p3": -0.0003940765866852298,
            "p2": -0.010754425856232944
        },
        "sigma4": {
            "p0": 0.026025849209187768
        }
    },
    "stat5_m": {
        "mean1": {
            "p0": 0.0011532124513151751,
            "p1": -0.00038790626650957324,
            "p3": -0.0003940765866852298,
            "p2": -0.010754425856232944
        },
        "sigma1": {
            "p0": 0.011276452066808787,
            "p1": 34.31143083470383
        },
        "norm1": {
            "p0": 0.005146428204525384
        },
        "mean2": {
            "p0": -0.02374690065166526,
            "p1": -0.00047422060926096305,
            "p3": -0.0003940765866852298,
            "p2": -0.010754425856232944
        },
        "sigma2": {
            "p0": 0.2026037647761913
        },
        "norm2": {
            "p0": 0.013995248258664467
        },
        "mean3": {
            "p0": 0.0011532124513151751,
            "p1": -0.00038790626650957324,
            "p3": -0.0003940765866852298,
            "p2": -0.010754425856232944
        },
        "sigma3": {
            "p0": 0.07886990139142755
        },
        "norm3": {
            "p0": 0.5456201285064352
        },
        "mean4": {
            "p0": -0.02374690065166526,
            "p1": -0.00047422060926096305,
            "p3": -0.0003940765866852298,
            "p2": -0.010754425856232944
        },
        "sigma4": {
            "p0": 0.025883134050285334
        }
    },
    "stat6_p": {
        "mean1": {
            "p0": 0.0011532700588886167,
            "p1": -0.00038657297353546086,
            "p3": -0.0003940765866852298,
            "p2": -0.010754425856232944
        },
        "sigma1": {
            "p0": 0.011293687712548635,
            "p1": 34.31143043204747
        },
        "norm1": {
            "p0": 0.005003476185779794
        },
        "mean2": {
            "p0": -0.02374690386167135,
            "p1": -0.0004743162165530248,
            "p3": -0.0003940765866852298,
            "p2": -0.010754425856232944
        },
        "sigma2": {
            "p0": 0.20260404594487727
        },
        "norm2": {
            "p0": 0.013662947692325678
        },
        "mean3": {
            "p0": 0.0011532700588886167,
            "p1": -0.00038657297353546086,
            "p3": -0.0003940765866852298,
            "p2": -0.010754425856232944
        },
        "sigma3": {
            "p0": 0.07815963272053283
        },
        "norm3": {
            "p0": 0.5457250186709506
        },
        "mean4": {
            "p0": -0.02374690386167135,
            "p1": -0.0004743162165530248,
            "p3": -0.0003940765866852298,
            "p2": -0.010754425856232944
        },
        "sigma4": {
            "p0": 0.025988256242403446
        }
    },
    "stat6_m": {
        "mean1": {
            "p0": 0.0011531461789693407,
            "p1": -0.0003913456104830791,
            "p3": -0.0003940765866852298,
            "p2": -0.010754425856232944
        },
        "sigma1": {
            "p0": 0.011310109514762141,
            "p1": 34.311430440037114
        },
        "norm1": {
            "p0": 0.004981903458603592
        },
        "mean2": {
            "p0": -0.02374674152277712,
            "p1": -0.0004714385918294786,
            "p3": -0.0003940765866852298,
            "p2": -0.010754425856232944
        },
        "sigma2": {
            "p0": 0.20260460613951364
        },
        "norm2": {
            "p0": 0.014615035903887436
        },
        "mean3": {
            "p0": 0.0011531461789693407,
            "p1": -0.0003913456104830791,
            "p3": -0.0003940765866852298,
            "p2": -0.010754425856232944
        },
        "sigma3": {
            "p0": 0.07856963243255952
        },
        "norm3": {
            "p0": 0.5460122498776013
        },
        "mean4": {
            "p0": -0.02374674152277712,
            "p1": -0.0004714385918294786,
            "p3": -0.0003940765866852298,
            "p2": -0.010754425856232944
        },
        "sigma4": {
            "p0": 0.025920727017069684
        }
    },
    "stat7_p": {
        "mean1": {
            "p0": 0.0011532087444102446,
            "p1": -0.00038894178999857954,
            "p3": -0.0003940765866852298,
            "p2": -0.010754425856232944
        },
        "sigma1": {
            "p0": 0.011316874179488921,
            "p1": 34.31143044478479
        },
        "norm1": {
            "p0": 0.005016958710222924
        },
        "mean2": {
            "p0": -0.02374682310060408,
            "p1": -0.000472900405425386,
            "p3": -0.0003940765866852298,
            "p2": -0.010754425856232944
        },
        "sigma2": {
            "p0": 0.20260432760361505
        },
        "norm2": {
            "p0": 0.014129365558358115
        },
        "mean3": {
            "p0": 0.0011532087444102446,
            "p1": -0.00038894178999857954,
            "p3": -0.0003940765866852298,
            "p2": -0.010754425856232944
        },
        "sigma3": {
            "p0": 0.07838002718835174
        },
        "norm3": {
            "p0": 0.5458972938500446
        },
        "mean4": {
            "p0": -0.02374682310060408,
            "p1": -0.000472900405425386,
            "p3": -0.0003940765866852298,
            "p2": -0.010754425856232944
        },
        "sigma4": {
            "p0": 0.026030027996201577
        }
    },
    "stat7_m": {
        "mean1": {
            "p0": 0.0011532074934477127,
            "p1": -0.00038897679401996043,
            "p3": -0.0003940765866852298,
            "p2": -0.010754425856232944
        },
        "sigma1": {
            "p0": 0.011286923047821848,
            "p1": 34.31143042729979
        },
        "norm1": {
            "p0": 0.0049684209341604585
        },
        "mean2": {
            "p0": -0.023746822283844383,
            "p1": -0.0004728544029571177,
            "p3": -0.0003940765866852298,
            "p2": -0.010754425856232944
        },
        "sigma2": {
            "p0": 0.20260432448077587
        },
        "norm2": {
            "p0": 0.01414861803785497
        },
        "mean3": {
            "p0": 0.0011532074934477127,
            "p1": -0.00038897679401996043,
            "p3": -0.0003940765866852298,
            "p2": -0.010754425856232944
        },
        "sigma3": {
            "p0": 0.07834923796474058
        },
        "norm3": {
            "p0": 0.5458399746985073
        },
        "mean4": {
            "p0": -0.023746822283844383,
            "p1": -0.0004728544029571177,
            "p3": -0.0003940765866852298,
            "p2": -0.010754425856232944
        },
        "sigma4": {
            "p0": 0.025878955263271525
        }
    },
    "stat8_p": {
        "mean1": {
            "p0": 0.0011532085537869746,
            "p1": -0.0003888825052647918,
            "p3": -0.0003940765866852298,
            "p2": -0.010754425856232944
        },
        "sigma1": {
            "p0": 0.011172444153934619,
            "p1": 34.311430403695795
        },
        "norm1": {
            "p0": 0.004940639909387083
        },
        "mean2": {
            "p0": -0.023746822759473065,
            "p1": -0.0004729190637643228,
            "p3": -0.0003940765866852298,
            "p2": -0.010754425856232944
        },
        "sigma2": {
            "p0": 0.20260432648856982
        },
        "norm2": {
            "p0": 0.014133329183849935
        },
        "mean3": {
            "p0": 0.0011532085537869746,
            "p1": -0.0003888825052647918,
            "p3": -0.0003940765866852298,
            "p2": -0.010754425856232944
        },
        "sigma3": {
            "p0": 0.07838096044218079
        },
        "norm3": {
            "p0": 0.5458759520350112
        },
        "mean4": {
            "p0": -0.023746822759473065,
            "p1": -0.0004729190637643228,
            "p3": -0.0003940765866852298,
            "p2": -0.010754425856232944
        },
        "sigma4": {
            "p0": 0.025990053977271776
        }
    },
    "stat8_m": {
        "mean1": {
            "p0": 0.0011532076840709824,
            "p1": -0.00038903607875374815,
            "p3": -0.0003940765866852298,
            "p2": -0.010754425856232944
        },
        "sigma1": {
            "p0": 0.011431353073376158,
            "p1": 34.311430468388785
        },
        "norm1": {
            "p0": 0.005044739734996299
        },
        "mean2": {
            "p0": -0.023746822624975406,
            "p1": -0.00047283574461818087,
            "p3": -0.0003940765866852298,
            "p2": -0.010754425856232944
        },
        "sigma2": {
            "p0": 0.2026043255958211
        },
        "norm2": {
            "p0": 0.01414465441236315
        },
        "mean3": {
            "p0": 0.0011532076840709824,
            "p1": -0.00038903607875374815,
            "p3": -0.0003940765866852298,
            "p2": -0.010754425856232944
        },
        "sigma3": {
            "p0": 0.07834830471091153
        },
        "norm3": {
            "p0": 0.5458613165135406
        },
        "mean4": {
            "p0": -0.023746822624975406,
            "p1": -0.00047283574461818087,
            "p3": -0.0003940765866852298,
            "p2": -0.010754425856232944
        },
        "sigma4": {
            "p0": 0.025918929282201325
        }
    },
    "stat9_p": {
        "mean1": {
            "p0": 0.0011532148175636909,
            "p1": -0.0003887864408685449,
            "p3": -0.0003940765866852298,
            "p2": -0.010754425856232944
        },
        "sigma1": {
            "p0": 0.011250580552005014,
            "p1": 34.311430501770474
        },
        "norm1": {
            "p0": 0.005091942374935175
        },
        "mean2": {
            "p0": -0.023746822283428184,
            "p1": -0.00047276453741937986,
            "p3": -0.0003940765866852298,
            "p2": -0.010754425856232944
        },
        "sigma2": {
            "p0": 0.20260436434311876
        },
        "norm2": {
            "p0": 0.014091166794396509
        },
        "mean3": {
            "p0": 0.0011532148175636909,
            "p1": -0.0003887864408685449,
            "p3": -0.0003940765866852298,
            "p2": -0.010754425856232944
        },
        "sigma3": {
            "p0": 0.07837388820814659
        },
        "norm3": {
            "p0": 0.5460051772921191
        },
        "mean4": {
            "p0": -0.023746822283428184,
            "p1": -0.00047276453741937986,
            "p3": -0.0003940765866852298,
            "p2": -0.010754425856232944
        },
        "sigma4": {
            "p0": 0.02587298969620283
        }
    },
    "stat9_m": {
        "mean1": {
            "p0": 0.0011532014202942662,
            "p1": -0.00038913214314999494,
            "p3": -0.0003940765866852298,
            "p2": -0.010754425856232944
        },
        "sigma1": {
            "p0": 0.011353216675305762,
            "p1": 34.311430370314106
        },
        "norm1": {
            "p0": 0.0048934372694481795
        },
        "mean2": {
            "p0": -0.023746823101020286,
            "p1": -0.0004729902709631238,
            "p3": -0.0003940765866852298,
            "p2": -0.010754425856232944
        },
        "sigma2": {
            "p0": 0.20260428774127215
        },
        "norm2": {
            "p0": 0.014186816801816576
        },
        "mean3": {
            "p0": 0.0011532014202942662,
            "p1": -0.00038913214314999494,
            "p3": -0.0003940765866852298,
            "p2": -0.010754425856232944
        },
        "sigma3": {
            "p0": 0.07835537694494574
        },
        "norm3": {
            "p0": 0.5457320912564327
        },
        "mean4": {
            "p0": -0.023746823101020286,
            "p1": -0.0004729902709631238,
            "p3": -0.0003940765866852298,
            "p2": -0.010754425856232944
        },
        "sigma4": {
            "p0": 0.0260359935632703
        }
    },
    "stat10_p": {
        "mean1": {
            "p0": 0.001153215571145091,
            "p1": -0.00038857763287736215,
            "p3": -0.0003940765866852298,
            "p2": -0.010754425856232944
        },
        "sigma1": {
            "p0": 0.011210340586843316,
            "p1": 34.311430605831035
        },
        "norm1": {
            "p0": 0.005186317032609709
        },
        "mean2": {
            "p0": -0.023746818894919194,
            "p1": -0.0004725244801162263,
            "p3": -0.0003940765866852298,
            "p2": -0.010754425856232944
        },
        "sigma2": {
            "p0": 0.20260427248927787
        },
        "norm2": {
            "p0": 0.01422394886468445
        },
        "mean3": {
            "p0": 0.001153215571145091,
            "p1": -0.00038857763287736215,
            "p3": -0.0003940765866852298,
            "p2": -0.010754425856232944
        },
        "sigma3": {
            "p0": 0.07827061012148018
        },
        "norm3": {
            "p0": 0.5457484305499708
        },
        "mean4": {
            "p0": -0.023746818894919194,
            "p1": -0.0004725244801162263,
            "p3": -0.0003940765866852298,
            "p2": -0.010754425856232944
        },
        "sigma4": {
            "p0": 0.025986029554401407
        }
    },
    "stat10_m": {
        "mean1": {
            "p0": 0.0011532006667128662,
            "p1": -0.0003893409511411778,
            "p3": -0.0003940765866852298,
            "p2": -0.010754425856232944
        },
        "sigma1": {
            "p0": 0.011393456640467453,
            "p1": 34.311430266253545
        },
        "norm1": {
            "p0": 0.004799062611773701
        },
        "mean2": {
            "p0": -0.023746826489529277,
            "p1": -0.0004732303282662774,
            "p3": -0.0003940765866852298,
            "p2": -0.010754425856232944
        },
        "sigma2": {
            "p0": 0.20260437959511307
        },
        "norm2": {
            "p0": 0.014054034731528636
        },
        "mean3": {
            "p0": 0.0011532006667128662,
            "p1": -0.0003893409511411778,
            "p3": -0.0003940765866852298,
            "p2": -0.010754425856232944
        },
        "sigma3": {
            "p0": 0.07845865503161217
        },
        "norm3": {
            "p0": 0.545988837998581
        },
        "mean4": {
            "p0": -0.023746826489529277,
            "p1": -0.0004732303282662774,
            "p3": -0.0003940765866852298,
            "p2": -0.010754425856232944
        },
        "sigma4": {
            "p0": 0.025922953705071722
        }
    },
    "stat11_p": {
        "mean1": {
            "p0": 0.0011591784830444797,
            "p1": -0.00012656842390809317,
            "p3": -0.0003940765866852298,
            "p2": -0.010754425856232944
        },
        "sigma1": {
            "p0": 0.011302267107029244,
            "p1": 34.31143043527899
        },
        "norm1": {
            "p0": 0.004992116261192996
        },
        "mean2": {
            "p0": -0.023742546192860373,
            "p1": -0.00028732619556777646,
            "p3": -0.0003940765866852298,
            "p2": -0.010754425856232944
        },
        "sigma2": {
            "p0": 0.20260432616316512
        },
        "norm2": {
            "p0": 0.014139491568583268
        },
        "mean3": {
            "p0": 0.0011591784830444797,
            "p1": -0.00012656842390809317,
            "p3": -0.0003940765866852298,
            "p2": -0.010754425856232944
        },
        "sigma3": {
            "p0": 0.07836502489819797
        },
        "norm3": {
            "p0": 0.5458688561466094
        },
        "mean4": {
            "p0": -0.023742546192860373,
            "p1": -0.00028732619556777646,
            "p3": -0.0003940765866852298,
            "p2": -0.010754425856232944
        },
        "sigma4": {
            "p0": 0.02595449808162756
        }
    },
    "stat11_m": {
        "mean1": {
            "p0": 0.0011472377548134775,
            "p1": -0.0006513501601104468,
            "p3": -0.0003940765866852298,
            "p2": -0.010754425856232944
        },
        "sigma1": {
            "p0": 0.011301530120281532,
            "p1": 34.31143043680559
        },
        "norm1": {
            "p0": 0.004993263383190359
        },
        "mean2": {
            "p0": -0.023751099191588097,
            "p1": -0.0006584286128147272,
            "p3": -0.0003940765866852298,
            "p2": -0.010754425856232944
        },
        "sigma2": {
            "p0": 0.20260432592122582
        },
        "norm2": {
            "p0": 0.014138492027629818
        },
        "mean3": {
            "p0": 0.0011472377548134775,
            "p1": -0.0006513501601104468,
            "p3": -0.0003940765866852298,
            "p2": -0.010754425856232944
        },
        "sigma3": {
            "p0": 0.07836424025489436
        },
        "norm3": {
            "p0": 0.5458684124019424
        },
        "mean4": {
            "p0": -0.023751099191588097,
            "p1": -0.0006584286128147272,
            "p3": -0.0003940765866852298,
            "p2": -0.010754425856232944
        },
        "sigma4": {
            "p0": 0.0259544851778456
        }
    }
}