{
    "nGauss": 3,
    "mean1": {
        "nParams": 2,
        "func": "[0] + [1]*x",
        "p0": -0.011297373445083149,
        "p0_err": [
            null,
            null
        ],
        "p1": -0.0013582112852558131,
        "p1_err": [
            null,
            null
        ]
    },
    "sigma1": {
        "nParams": 3,
        "func": "[0]*TMath::Power(x, [1]) + [2]",
        "p0": 0.03867002946736496,
        "p0_err": [
            null,
            null
        ],
        "p1": 1.0911135514511698,
        "p1_err": [
            null,
            null
        ],
        "p2": 12.584684279614217
    },
    "norm1": {
        "nParams": 1,
        "func": "[0]",
        "p0": 0.17282952415889882,
        "p0_err": [
            null,
            null
        ]
    },
    "mean2": {
        "nParams": 2,
        "func": "[0] + [1]*x",
        "p0": -0.011297373445083149,
        "p0_err": [
            null,
            null
        ],
        "p1": -0.0013582112852558131,
        "p1_err": [
            null,
            null
        ]
    },
    "sigma2": {
        "nParams": 3,
        "func": "[0]*TMath::Power(x, [1]) + [2]",
        "p0": 0.09314354865688586,
        "p0_err": [
            null,
            null
        ],
        "p1": 0.695046474432548,
        "p1_err": [
            null,
            null
        ],
        "p2": 4.181860482161466
    },
    "norm2": {
        "nParams": 1,
        "func": "[0]",
        "p0": 0.13365478638622694,
        "p0_err": [
            null,
            null
        ]
    },
    "mean3": {
        "nParams": 2,
        "func": "[0] + [1]*x",
        "p0": -0.011297373445083149,
        "p0_err": [
            null,
            null
        ],
        "p1": -0.0013582112852558131,
        "p1_err": [
            null,
            null
        ]
    },
    "sigma3": {
        "nParams": 3,
        "func": "[0]*TMath::Power(x, [1]) + [2]",
        "p0": 0.1331449635492525,
        "p0_err": [
            null,
            null
        ],
        "p1": 0.705548476343844,
        "p1_err": [
            null,
            null
        ],
        "p2": 7.696607977268248
    },
    "nStatVars": 10,
    "stat0_p": {
        "mean1": {
            "p0": -0.011841936894584145,
            "p1": -0.0013241770484570532
        },
        "sigma1": {
            "p0": 0.03823603285520759,
            "p1": 12.233878440380185
        },
        "norm1": {
            "p0": 0.2065721552847288
        },
        "mean2": {
            "p0": -0.011841936894584145,
            "p1": -0.0013241770484570532
        },
        "sigma2": {
            "p0": 0.09180743225434755,
            "p1": 3.851920384228427
        },
        "norm2": {
            "p0": 0.09713363516353611
        },
        "mean3": {
            "p0": -0.011841936894584145,
            "p1": -0.0013241770484570532
        },
        "sigma3": {
            "p0": 0.13276929343221128,
            "p1": 7.431475574263693
        }
    },
    "stat0_m": {
        "mean1": {
            "p0": -0.01075280999558215,
            "p1": -0.0013922455220545795
        },
        "sigma1": {
            "p0": 0.03910402607952228,
            "p1": 12.935490118848255
        },
        "norm1": {
            "p0": 0.1390868930330684
        },
        "mean2": {
            "p0": -0.01075280999558215,
            "p1": -0.0013922455220545795
        },
        "sigma2": {
            "p0": 0.09447966505942403,
            "p1": 4.511800580094508
        },
        "norm2": {
            "p0": 0.17017593760891755
        },
        "mean3": {
            "p0": -0.01075280999558215,
            "p1": -0.0013922455220545795
        },
        "sigma3": {
            "p0": 0.13352063366629383,
            "p1": 7.961740380272801
        }
    },
    "stat1_p": {
        "mean1": {
            "p0": -0.01153900261918378,
            "p1": -0.0013520424304503686
        },
        "sigma1": {
            "p0": 0.038789131061792756,
            "p1": 12.763320772803553
        },
        "norm1": {
            "p0": 0.16111011634692415
        },
        "mean2": {
            "p0": -0.01153900261918378,
            "p1": -0.0013520424304503686
        },
        "sigma2": {
            "p0": 0.09429557300182362,
            "p1": 3.982535669975331
        },
        "norm2": {
            "p0": 0.12228512693355185
        },
        "mean3": {
            "p0": -0.01153900261918378,
            "p1": -0.0013520424304503686
        },
        "sigma3": {
            "p0": 0.13292372100514013,
            "p1": 7.708364128091096
        }
    },
    "stat1_m": {
        "mean1": {
            "p0": -0.011055744270982513,
            "p1": -0.0013643801400612643
        },
        "sigma1": {
            "p0": 0.03855092787293711,
            "p1": 12.406047786424883
        },
        "norm1": {
            "p0": 0.18454893197087305
        },
        "mean2": {
            "p0": -0.011055744270982513,
            "p1": -0.0013643801400612643
        },
        "sigma2": {
            "p0": 0.09199152431194797,
            "p1": 4.381185294347605
        },
        "norm2": {
            "p0": 0.1450244458389016
        },
        "mean3": {
            "p0": -0.011055744270982513,
            "p1": -0.0013643801400612643
        },
        "sigma3": {
            "p0": 0.13336620609336497,
            "p1": 7.684851826445398
        }
    },
    "stat2_p": {
        "mean1": {
            "p0": -0.011377769514396178,
            "p1": -0.0013359519712362361
        },
        "sigma1": {
            "p0": 0.03819727690569942,
            "p1": 12.625056089170657
        },
        "norm1": {
            "p0": 0.17736472827507518
        },
        "mean2": {
            "p0": -0.011377769514396178,
            "p1": -0.0013359519712362361
        },
        "sigma2": {
            "p0": 0.0895632852915723,
            "p1": 4.2128886505394485
        },
        "norm2": {
            "p0": 0.12554821262072655
        },
        "mean3": {
            "p0": -0.011377769514396178,
            "p1": -0.0013359519712362361
        },
        "sigma3": {
            "p0": 0.13428603677088277,
            "p1": 7.606289301180442
        }
    },
    "stat2_m": {
        "mean1": {
            "p0": -0.011216977375770116,
            "p1": -0.0013804705992753966
        },
        "sigma1": {
            "p0": 0.03914278202903047,
            "p1": 12.54431247005778
        },
        "norm1": {
            "p0": 0.16829432004272224
        },
        "mean2": {
            "p0": -0.011216977375770116,
            "p1": -0.0013804705992753966
        },
        "sigma2": {
            "p0": 0.09672381202219928,
            "p1": 4.150832313783485
        },
        "norm2": {
            "p0": 0.1417613601517271
        },
        "mean3": {
            "p0": -0.011216977375770116,
            "p1": -0.0013804705992753966
        },
        "sigma3": {
            "p0": 0.13200389032762233,
            "p1": 7.786926653356053
        }
    },
    "stat3_p": {
        "mean1": {
            "p0": 0.023810360167628494,
            "p1": -0.0025047704817604457
        },
        "sigma1": {
            "p0": 0.03867832982088608,
            "p1": 12.584693909431664
        },
        "norm1": {
            "p0": 0.17282403016532963
        },
        "mean2": {
            "p0": 0.023810360167628494,
            "p1": -0.0025047704817604457
        },
        "sigma2": {
            "p0": 0.09318841981910585,
            "p1": 4.181825256618376
        },
        "norm2": {
            "p0": 0.1336453374826909
        },
        "mean3": {
            "p0": 0.023810360167628494,
            "p1": -0.0025047704817604457
        },
        "sigma3": {
            "p0": 0.13312938987831366,
            "p1": 7.696567200322313
        }
    },
    "stat3_m": {
        "mean1": {
            "p0": -0.046405107057794784,
            "p1": -0.0002116520887511875
        },
        "sigma1": {
            "p0": 0.038661729113843815,
            "p1": 12.584674649796773
        },
        "norm1": {
            "p0": 0.17283501815246757
        },
        "mean2": {
            "p0": -0.046405107057794784,
            "p1": -0.0002116520887511875
        },
        "sigma2": {
            "p0": 0.09309867749466573,
            "p1": 4.181895707704559
        },
        "norm2": {
            "p0": 0.13366423528976254
        },
        "mean3": {
            "p0": -0.046405107057794784,
            "p1": -0.0002116520887511875
        },
        "sigma3": {
            "p0": 0.13316053722019144,
            "p1": 7.6966487542141815
        }
    },
    "stat4_p": {
        "mean1": {
            "p0": -0.011294071012589708,
            "p1": -0.0013520442032648925
        },
        "sigma1": {
            "p0": 0.038975595577546554,
            "p1": 12.584343425613698
        },
        "norm1": {
            "p0": 0.16906077520191928
        },
        "mean2": {
            "p0": -0.011294071012589708,
            "p1": -0.0013520442032648925
        },
        "sigma2": {
            "p0": 0.08947733969119866,
            "p1": 4.1821955575129
        },
        "norm2": {
            "p0": 0.12651919851228563
        },
        "mean3": {
            "p0": -0.011294071012589708,
            "p1": -0.0013520442032648925
        },
        "sigma3": {
            "p0": 0.13297102151955914,
            "p1": 7.697163476254141
        }
    },
    "stat4_m": {
        "mean1": {
            "p0": -0.011300675877576584,
            "p1": -0.0013643783672467407
        },
        "sigma1": {
            "p0": 0.03836446335718331,
            "p1": 12.58502513361474
        },
        "norm1": {
            "p0": 0.17659827311587792
        },
        "mean2": {
            "p0": -0.011300675877576584,
            "p1": -0.0013643783672467407
        },
        "sigma2": {
            "p0": 0.09680975762257298,
            "p1": 4.181525406810036
        },
        "norm2": {
            "p0": 0.1407903742601679
        },
        "mean3": {
            "p0": -0.011300675877576584,
            "p1": -0.0013643783672467407
        },
        "sigma3": {
            "p0": 0.13331890557894602,
            "p1": 7.696052478282353
        }
    },
    "stat5_p": {
        "mean1": {
            "p0": -0.011295767000694713,
            "p1": -0.0013549767634056069
        },
        "sigma1": {
            "p0": 0.03841029572252451,
            "p1": 12.584877250512177
        },
        "norm1": {
            "p0": 0.17727206268197523
        },
        "mean2": {
            "p0": -0.011295767000694713,
            "p1": -0.0013549767634056069
        },
        "sigma2": {
            "p0": 0.09236285783025468,
            "p1": 4.18190764616295
        },
        "norm2": {
            "p0": 0.1317504058537021
        },
        "mean3": {
            "p0": -0.011295767000694713,
            "p1": -0.0013549767634056069
        },
        "sigma3": {
            "p0": 0.13238207737605337,
            "p1": 7.6971271071053495
        }
    },
    "stat5_m": {
        "mean1": {
            "p0": -0.011298979889471579,
            "p1": -0.0013614458071060263
        },
        "sigma1": {
            "p0": 0.03892976321220533,
            "p1": 12.584491308716261
        },
        "norm1": {
            "p0": 0.16838698563582197
        },
        "mean2": {
            "p0": -0.011298979889471579,
            "p1": -0.0013614458071060263
        },
        "sigma2": {
            "p0": 0.09392423948351696,
            "p1": 4.181813318159986
        },
        "norm2": {
            "p0": 0.13555916691875133
        },
        "mean3": {
            "p0": -0.011298979889471579,
            "p1": -0.0013614458071060263
        },
        "sigma3": {
            "p0": 0.13390784972245176,
            "p1": 7.696088847431145
        }
    },
    "stat6_p": {
        "mean1": {
            "p0": -0.011303411783674572,
            "p1": -0.0013821195078701932
        },
        "sigma1": {
            "p0": 0.03889324383658309,
            "p1": 12.584680813083253
        },
        "norm1": {
            "p0": 0.17259601427089627
        },
        "mean2": {
            "p0": -0.011303411783674572,
            "p1": -0.0013821195078701932
        },
        "sigma2": {
            "p0": 0.09665032829105809,
            "p1": 4.181987507764059
        },
        "norm2": {
            "p0": 0.1320162078866625
        },
        "mean3": {
            "p0": -0.011303411783674572,
            "p1": -0.0013821195078701932
        },
        "sigma3": {
            "p0": 0.13223529024233271,
            "p1": 7.69663374041977
        }
    },
    "stat6_m": {
        "mean1": {
            "p0": -0.01129133510649172,
            "p1": -0.0013343030626414396
        },
        "sigma1": {
            "p0": 0.03844681509814678,
            "p1": 12.584687746145184
        },
        "norm1": {
            "p0": 0.17306303404690093
        },
        "mean2": {
            "p0": -0.01129133510649172,
            "p1": -0.0013343030626414396
        },
        "sigma2": {
            "p0": 0.08963676902271352,
            "p1": 4.181733456558877
        },
        "norm2": {
            "p0": 0.13529336488579094
        },
        "mean3": {
            "p0": -0.01129133510649172,
            "p1": -0.0013343030626414396
        },
        "sigma3": {
            "p0": 0.13405463685617242,
            "p1": 7.696582214116725
        }
    },
    "stat7_p": {
        "mean1": {
            "p0": -0.011297338171069655,
            "p1": -0.0013557665016506134
        },
        "sigma1": {
            "p0": 0.03919979880185233,
            "p1": 12.584686760956247
        },
        "norm1": {
            "p0": 0.17288744056120078
        },
        "mean2": {
            "p0": -0.011297338171069655,
            "p1": -0.0013557665016506134
        },
        "sigma2": {
            "p0": 0.09315556341326524,
            "p1": 4.181860823482052
        },
        "norm2": {
            "p0": 0.13363624783208866
        },
        "mean3": {
            "p0": -0.011297338171069655,
            "p1": -0.0013557665016506134
        },
        "sigma3": {
            "p0": 0.1333399162773317,
            "p1": 7.696612990127397
        }
    },
    "stat7_m": {
        "mean1": {
            "p0": -0.011297408719096637,
            "p1": -0.0013606560688610193
        },
        "sigma1": {
            "p0": 0.03814026013287754,
            "p1": 12.584681798272191
        },
        "norm1": {
            "p0": 0.17277160775659642
        },
        "mean2": {
            "p0": -0.011297408719096637,
            "p1": -0.0013606560688610193
        },
        "sigma2": {
            "p0": 0.09313153390050637,
            "p1": 4.181860140840884
        },
        "norm2": {
            "p0": 0.1336733249403648
        },
        "mean3": {
            "p0": -0.011297408719096637,
            "p1": -0.0013606560688610193
        },
        "sigma3": {
            "p0": 0.13295001082117341,
            "p1": 7.696602964409097
        }
    },
    "stat8_p": {
        "mean1": {
            "p0": -0.01130179372366672,
            "p1": -0.001484225452955921
        },
        "sigma1": {
            "p0": 0.03908869163707729,
            "p1": 12.584685180097555
        },
        "norm1": {
            "p0": 0.172724872716214
        },
        "mean2": {
            "p0": -0.01130179372366672,
            "p1": -0.001484225452955921
        },
        "sigma2": {
            "p0": 0.09292832595418268,
            "p1": 4.181853898348881
        },
        "norm2": {
            "p0": 0.1338616558506978
        },
        "mean3": {
            "p0": -0.01130179372366672,
            "p1": -0.001484225452955921
        },
        "sigma3": {
            "p0": 0.1320737333348728,
            "p1": 7.696575074669995
        }
    },
    "stat8_m": {
        "mean1": {
            "p0": -0.011292953166499576,
            "p1": -0.001232197117555712
        },
        "sigma1": {
            "p0": 0.03825136729765258,
            "p1": 12.584683379130881
        },
        "norm1": {
            "p0": 0.1729341756015832
        },
        "mean2": {
            "p0": -0.011292953166499576,
            "p1": -0.001232197117555712
        },
        "sigma2": {
            "p0": 0.09335877135958892,
            "p1": 4.181867065974054
        },
        "norm2": {
            "p0": 0.1334479169217556
        },
        "mean3": {
            "p0": -0.011292953166499576,
            "p1": -0.001232197117555712
        },
        "sigma3": {
            "p0": 0.13421619376363234,
            "p1": 7.696640879866498
        }
    },
    "stat9_p": {
        "mean1": {
            "p0": -0.011260486214421932,
            "p1": -0.00022750992733253734
        },
        "sigma1": {
            "p0": 0.03870777580250313,
            "p1": 12.584684286840005
        },
        "norm1": {
            "p0": 0.17281779398100333
        },
        "mean2": {
            "p0": -0.011260486214421932,
            "p1": -0.00022750992733253734
        },
        "sigma2": {
            "p0": 0.09312840765981761,
            "p1": 4.18185995241787
        },
        "norm2": {
            "p0": 0.13367378836000962
        },
        "mean3": {
            "p0": -0.011260486214421932,
            "p1": -0.00022750992733253734
        },
        "sigma3": {
            "p0": 0.13303451312086004,
            "p1": 7.696604757006184
        }
    },
    "stat9_m": {
        "mean1": {
            "p0": -0.011334260675744364,
            "p1": -0.0024889126431791027
        },
        "sigma1": {
            "p0": 0.03863228313222675,
            "p1": 12.584684272388431
        },
        "norm1": {
            "p0": 0.1728412543367939
        },
        "mean2": {
            "p0": -0.011334260675744364,
            "p1": -0.0024889126431791027
        },
        "sigma2": {
            "p0": 0.09315868965395398,
            "p1": 4.181861011905065
        },
        "norm2": {
            "p0": 0.13363578441244384
        },
        "mean3": {
            "p0": -0.011334260675744364,
            "p1": -0.0024889126431791027
        },
        "sigma3": {
            "p0": 0.1332554139776451,
            "p1": 7.696611197530309
        }
    }
}