{
    "nGauss": 3,
    "mean1": {
        "nParams": 3,
        "func": "[0]*TMath::Power(x, [1]) + [2]",
        "p0": 0.13599437555948823,
        "p0_err": [
            null,
            null
        ],
        "p1": 0.9360764858510695,
        "p2": 1.427804948999067
    },
    "sigma1": {
        "nParams": 3,
        "func": "[0]*TMath::Power(x, [1]) + [2]",
        "p0": 0.007776356189249663,
        "p0_err": [
            null,
            null
        ],
        "p1": 1.7310946512888674,
        "p1_err": [
            null,
            null
        ],
        "p2": 13.969198481976067
    },
    "norm1": {
        "nParams": 1,
        "func": "[0]",
        "p0": 0.06292062832888003,
        "p0_err": [
            null,
            null
        ]
    },
    "mean2": {
        "nParams": 3,
        "func": "[0]*TMath::Power(x, [1]) + [2]",
        "p0": 1.681225917703636,
        "p0_err": [
            null,
            null
        ],
        "p1": 0.4484502012882678,
        "p2": -1.4207872107921657
    },
    "sigma2": {
        "nParams": 3,
        "func": "[0]*TMath::Power(x, [1]) + [2]",
        "p0": 0.10185383154985056,
        "p0_err": [
            null,
            null
        ],
        "p1": 0.9635066903121213,
        "p1_err": [
            null,
            null
        ],
        "p2": 5.408822373654216
    },
    "norm2": {
        "nParams": 1,
        "func": "[0]",
        "p0": 0.38518339389633444,
        "p0_err": [
            null,
            null
        ]
    },
    "mean3": {
        "nParams": 3,
        "func": "[0]*TMath::Power(x, [1]) + [2]",
        "p0": 1.681225917703636,
        "p0_err": [
            null,
            null
        ],
        "p1": 0.4484502012882678,
        "p2": -1.4207872107921657
    },
    "sigma3": {
        "nParams": 3,
        "func": "[0]*TMath::Power(x, [1]) + [2]",
        "p0": 0.2293352470400857,
        "p0_err": [
            null,
            null
        ],
        "p1": 0.706352560883464,
        "p1_err": [
            null,
            null
        ],
        "p2": 8.887003088963098
    },
    "nStatVars": 10,
    "stat0_p": {
        "mean1": {
            "p0": 0.1348892066923539,
            "p1": 0.9284693875048105,
            "p2": 1.4162017810630239
        },
        "sigma1": {
            "p0": 0.007890754330186166,
            "p1": 1.7565608214427426,
            "p2": 14.450354638617624
        },
        "norm1": {
            "p0": 0.045067203299679795
        },
        "mean2": {
            "p0": 1.6798187244893872,
            "p1": 0.4480748465702991,
            "p2": -1.4195980058787363
        },
        "sigma2": {
            "p0": 0.10175576607949793,
            "p1": 0.9625790203822265,
            "p2": 5.5143201445899654
        },
        "norm2": {
            "p0": 0.4136149597928783
        },
        "mean3": {
            "p0": 1.6798187244893872,
            "p1": 0.4480748465702991,
            "p2": -1.4195980058787363
        },
        "sigma3": {
            "p0": 0.22938615249529412,
            "p1": 0.7065093496855059,
            "p2": 9.094252545199591
        }
    },
    "stat0_m": {
        "mean1": {
            "p0": 0.13709954442662212,
            "p1": 0.9436835841973255,
            "p2": 1.4394081169351056
        },
        "sigma1": {
            "p0": 0.007661958048313149,
            "p1": 1.7056284811349902,
            "p2": 13.488042325334506
        },
        "norm1": {
            "p0": 0.08077405335808036
        },
        "mean2": {
            "p0": 1.6826331109178836,
            "p1": 0.44882555600623625,
            "p2": -1.4219764157055943
        },
        "sigma2": {
            "p0": 0.10195189702020313,
            "p1": 0.9644343602420156,
            "p2": 5.30332460271847
        },
        "norm2": {
            "p0": 0.35675182799979094
        },
        "mean3": {
            "p0": 1.6826331109178836,
            "p1": 0.44882555600623625,
            "p2": -1.4219764157055943
        },
        "sigma3": {
            "p0": 0.22928434158487732,
            "p1": 0.7061957720814221,
            "p2": 8.679753632726607
        }
    },
    "stat1_p": {
        "mean1": {
            "p0": 0.13641847167066418,
            "p1": 0.9389956242035157,
            "p2": 1.4322575340703032
        },
        "sigma1": {
            "p0": 0.007725354705440382,
            "p1": 1.7197412109780834,
            "p2": 14.115377665925068
        },
        "norm1": {
            "p0": 0.06623923699548968
        },
        "mean2": {
            "p0": 1.6813542268520216,
            "p1": 0.44848442647050824,
            "p2": -1.420895643570375
        },
        "sigma2": {
            "p0": 0.10206400163885399,
            "p1": 0.965494836303067,
            "p2": 5.215655035978395
        },
        "norm2": {
            "p0": 0.33954989616234216
        },
        "mean3": {
            "p0": 1.6813542268520216,
            "p1": 0.44848442647050824,
            "p2": -1.420895643570375
        },
        "sigma3": {
            "p0": 0.23071825678404873,
            "p1": 0.7106122308948701,
            "p2": 8.652507877031804
        }
    },
    "stat1_m": {
        "mean1": {
            "p0": 0.13557027944831185,
            "p1": 0.9331573474986201,
            "p2": 1.4233523639278263
        },
        "sigma1": {
            "p0": 0.007827357673058933,
            "p1": 1.7424480915996492,
            "p2": 13.82301929802706
        },
        "norm1": {
            "p0": 0.05960201966227048
        },
        "mean2": {
            "p0": 1.681097608555249,
            "p1": 0.44841597610602707,
            "p2": -1.4206787780139554
        },
        "sigma2": {
            "p0": 0.10164366146084708,
            "p1": 0.9615185443211751,
            "p2": 5.60198971133004
        },
        "norm2": {
            "p0": 0.4308168916303273
        },
        "mean3": {
            "p0": 1.681097608555249,
            "p1": 0.44841597610602707,
            "p2": -1.4206787780139554
        },
        "sigma3": {
            "p0": 0.2279522372961227,
            "p1": 0.702092890872058,
            "p2": 9.121498300894395
        }
    },
    "stat2_p": {
        "mean1": {
            "p0": 0.13623072928642793,
            "p1": 0.9377033558243408,
            "p2": 1.430286426778207
        },
        "sigma1": {
            "p0": 0.007720098562114204,
            "p1": 1.718571140912243,
            "p2": 13.978134693894942
        },
        "norm1": {
            "p0": 0.0665375427311828
        },
        "mean2": {
            "p0": 1.681486522781548,
            "p1": 0.4485197150867501,
            "p2": -1.4210074455374584
        },
        "sigma2": {
            "p0": 0.10114999477133213,
            "p1": 0.9568486055383705,
            "p2": 5.49087029184123
        },
        "norm2": {
            "p0": 0.3894145361185772
        },
        "mean3": {
            "p0": 1.681486522781548,
            "p1": 0.4485197150867501,
            "p2": -1.4210074455374584
        },
        "sigma3": {
            "p0": 0.23113768156824402,
            "p1": 0.7119040592301916,
            "p2": 8.824224463662372
        }
    },
    "stat2_m": {
        "mean1": {
            "p0": 0.1357580218325481,
            "p1": 0.9344496158777951,
            "p2": 1.4253234712199225
        },
        "sigma1": {
            "p0": 0.007832613816385111,
            "p1": 1.7436181616654896,
            "p2": 13.960262270057186
        },
        "norm1": {
            "p0": 0.059303713926577586
        },
        "mean2": {
            "p0": 1.6809653126257227,
            "p1": 0.4483806874897852,
            "p2": -1.420566976046872
        },
        "sigma2": {
            "p0": 0.10255766832836893,
            "p1": 0.9701647750858716,
            "p2": 5.326774455467205
        },
        "norm2": {
            "p0": 0.38095225167409213
        },
        "mean3": {
            "p0": 1.6809653126257227,
            "p1": 0.4483806874897852,
            "p2": -1.420566976046872
        },
        "sigma3": {
            "p0": 0.22753281251192742,
            "p1": 0.7008010625367365,
            "p2": 8.949781714263827
        }
    },
    "stat3_p": {
        "mean1": {
            "p0": 0.1357193364632922,
            "p1": 0.934183336744133,
            "p2": 1.424917313528105
        },
        "sigma1": {
            "p0": 0.007818029634574264,
            "p1": 1.740371576952577,
            "p2": 13.969073488507572
        },
        "norm1": {
            "p0": 0.059596200001930624
        },
        "mean2": {
            "p0": 1.6809316560713377,
            "p1": 0.44837170994046854,
            "p2": -1.4205385332293268
        },
        "sigma2": {
            "p0": 0.10150459478208201,
            "p1": 0.9602030152600612,
            "p2": 5.409753823325895
        },
        "norm2": {
            "p0": 0.37790310887858874
        },
        "mean3": {
            "p0": 1.6809316560713377,
            "p1": 0.44837170994046854,
            "p2": -1.4205385332293268
        },
        "sigma3": {
            "p0": 0.22953515660947468,
            "p1": 0.706968282357182,
            "p2": 8.887527798395718
        }
    },
    "stat3_m": {
        "mean1": {
            "p0": 0.1362694146556838,
            "p1": 0.9379696349580027,
            "p2": 1.4306925844700242
        },
        "sigma1": {
            "p0": 0.0077346827439250514,
            "p1": 1.721817725625156,
            "p2": 13.969323475444556
        },
        "norm1": {
            "p0": 0.06624505665582954
        },
        "mean2": {
            "p0": 1.6815201793359331,
            "p1": 0.44852869263606676,
            "p2": -1.4210358883550038
        },
        "sigma2": {
            "p0": 0.10220306831761902,
            "p1": 0.9668103653641806,
            "p2": 5.40789092398254
        },
        "norm2": {
            "p0": 0.39246367891408057
        },
        "mean3": {
            "p0": 1.6815201793359331,
            "p1": 0.44852869263606676,
            "p2": -1.4210358883550038
        },
        "sigma3": {
            "p0": 0.22913533747069675,
            "p1": 0.705736839409746,
            "p2": 8.886478379530478
        }
    },
    "stat4_p": {
        "mean1": {
            "p0": 0.14057853942392373,
            "p1": 0.9676302025627519,
            "p2": 1.4759340854117753
        },
        "sigma1": {
            "p0": 0.007793000882631388,
            "p1": 1.7347999264825733,
            "p2": 13.969212991789398
        },
        "norm1": {
            "p0": 0.06367532905273483
        },
        "mean2": {
            "p0": 1.6776509760671952,
            "p1": 0.4474966213561636,
            "p2": -1.417766063364626
        },
        "sigma2": {
            "p0": 0.10195096364533401,
            "p1": 0.9644255307957661,
            "p2": 5.408865057791703
        },
        "norm2": {
            "p0": 0.3848013123301663
        },
        "mean3": {
            "p0": 1.6776509760671952,
            "p1": 0.4474966213561636,
            "p2": -1.417766063364626
        },
        "sigma3": {
            "p0": 0.2288285734132065,
            "p1": 0.704792006112676,
            "p2": 8.887065437294838
        }
    },
    "stat4_m": {
        "mean1": {
            "p0": 0.1314102116950522,
            "p1": 0.9045227691393835,
            "p2": 1.3796758125863533
        },
        "sigma1": {
            "p0": 0.007759711495867927,
            "p1": 1.7273893760951593,
            "p2": 13.969183972162734
        },
        "norm1": {
            "p0": 0.06216592760502555
        },
        "mean2": {
            "p0": 1.6848008593400758,
            "p1": 0.4494037812203718,
            "p2": -1.4238083582197048
        },
        "sigma2": {
            "p0": 0.10175669945436705,
            "p1": 0.962587849828476,
            "p2": 5.408779689516733
        },
        "norm2": {
            "p0": 0.385565475462503
        },
        "mean3": {
            "p0": 1.6848008593400758,
            "p1": 0.4494037812203718,
            "p2": -1.4238083582197048
        },
        "sigma3": {
            "p0": 0.22984192066696488,
            "p1": 0.7079131156542519,
            "p2": 8.886940740631356
        }
    },
    "stat5_p": {
        "mean1": {
            "p0": 0.13623741018775334,
            "p1": 0.9377493418043439,
            "p2": 1.4303565695612224
        },
        "sigma1": {
            "p0": 0.007804148444220784,
            "p1": 1.7372814851679887,
            "p2": 13.96910766529561
        },
        "norm1": {
            "p0": 0.05880691324365357
        },
        "mean2": {
            "p0": 1.6801192134186314,
            "p1": 0.44815499898728567,
            "p2": -1.4198519460679513
        },
        "sigma2": {
            "p0": 0.10145143105926632,
            "p1": 0.9597001023913416,
            "p2": 5.408621124518357
        },
        "norm2": {
            "p0": 0.387132432430135
        },
        "mean3": {
            "p0": 1.6801192134186314,
            "p1": 0.44815499898728567,
            "p2": -1.4198519460679513
        },
        "sigma3": {
            "p0": 0.23161087213079687,
            "p1": 0.7133614861628543,
            "p2": 8.886687638116758
        }
    },
    "stat5_m": {
        "mean1": {
            "p0": 0.1357513409312227,
            "p1": 0.9344036298977922,
            "p2": 1.4252533284369073
        },
        "sigma1": {
            "p0": 0.007748563934278531,
            "p1": 1.7249078174097439,
            "p2": 13.969289298656522
        },
        "norm1": {
            "p0": 0.06703434341410693
        },
        "mean2": {
            "p0": 1.6823326219886396,
            "p1": 0.4487454035892497,
            "p2": -1.4217224755163795
        },
        "sigma2": {
            "p0": 0.10225623204043477,
            "p1": 0.9673132782329008,
            "p2": 5.409023622790078
        },
        "norm2": {
            "p0": 0.3832343553625343
        },
        "mean3": {
            "p0": 1.6823326219886396,
            "p1": 0.4487454035892497,
            "p2": -1.4217224755163795
        },
        "sigma3": {
            "p0": 0.22705962194937448,
            "p1": 0.6993436356040734,
            "p2": 8.887318539809439
        }
    },
    "stat6_p": {
        "mean1": {
            "p0": 0.13387959613934766,
            "p1": 0.9215200361463579,
            "p2": 1.4056018798670111
        },
        "sigma1": {
            "p0": 0.007768490951394881,
            "p1": 1.7293437706900145,
            "p2": 13.969200975884858
        },
        "norm1": {
            "p0": 0.06331770869795177
        },
        "mean2": {
            "p0": 1.6786422758043285,
            "p1": 0.44776104064804656,
            "p2": -1.41860380085948
        },
        "sigma2": {
            "p0": 0.10193022412977787,
            "p1": 0.9642293412004597,
            "p2": 5.4088257365333945
        },
        "norm2": {
            "p0": 0.3851750000044978
        },
        "mean3": {
            "p0": 1.6786422758043285,
            "p1": 0.44776104064804656,
            "p2": -1.41860380085948
        },
        "sigma3": {
            "p0": 0.22904348819979534,
            "p1": 0.7054539436553696,
            "p2": 8.887002237486302
        }
    },
    "stat6_m": {
        "mean1": {
            "p0": 0.1381091549796284,
            "p1": 0.9506329355557782,
            "p2": 1.4500080181311186
        },
        "sigma1": {
            "p0": 0.007784221427104434,
            "p1": 1.7328455318877183,
            "p2": 13.969195988067273
        },
        "norm1": {
            "p0": 0.06252354795980865
        },
        "mean2": {
            "p0": 1.6838095596029425,
            "p1": 0.44913936192848886,
            "p2": -1.4229706207248507
        },
        "sigma2": {
            "p0": 0.1017774389699232,
            "p1": 0.9627840394237824,
            "p2": 5.408819010775041
        },
        "norm2": {
            "p0": 0.3851917877881715
        },
        "mean3": {
            "p0": 1.6838095596029425,
            "p1": 0.44913936192848886,
            "p2": -1.4229706207248507
        },
        "sigma3": {
            "p0": 0.22962700588037607,
            "p1": 0.7072511781115584,
            "p2": 8.887003940439895
        }
    },
    "stat7_p": {
        "mean1": {
            "p0": 0.1359757538795849,
            "p1": 0.9359483091039589,
            "p2": 1.427609439981762
        },
        "sigma1": {
            "p0": 0.007727316511138482,
            "p1": 1.7201779285445375,
            "p2": 13.96921136073977
        },
        "norm1": {
            "p0": 0.0638772973514604
        },
        "mean2": {
            "p0": 1.6811564548183549,
            "p1": 0.4484316727582479,
            "p2": -1.4207285084024435
        },
        "sigma2": {
            "p0": 0.10117678692112639,
            "p1": 0.9571020512377792,
            "p2": 5.408823945413236
        },
        "norm2": {
            "p0": 0.38484103445476675
        },
        "mean3": {
            "p0": 1.6811564548183549,
            "p1": 0.4484316727582479,
            "p2": -1.4207285084024435
        },
        "sigma3": {
            "p0": 0.23122110323883693,
            "p1": 0.7121609979756178,
            "p2": 8.887100440279337
        }
    },
    "stat7_m": {
        "mean1": {
            "p0": 0.13601299723939111,
            "p1": 0.936204662598177,
            "p2": 1.4280004580163674
        },
        "sigma1": {
            "p0": 0.007825395867360833,
            "p1": 1.742011374033195,
            "p2": 13.969185603212361
        },
        "norm1": {
            "p0": 0.06196395930629996
        },
        "mean2": {
            "p0": 1.6812953805889161,
            "p1": 0.44846872981828745,
            "p2": -1.4208459131818871
        },
        "sigma2": {
            "p0": 0.1025308761785747,
            "p1": 0.9699113293864631,
            "p2": 5.408820801895199
        },
        "norm2": {
            "p0": 0.3855257533379025
        },
        "mean3": {
            "p0": 1.6812953805889161,
            "p1": 0.44846872981828745,
            "p2": -1.4208459131818871
        },
        "sigma3": {
            "p0": 0.22744939084133445,
            "p1": 0.7005441237913101,
            "p2": 8.88690573764686
        }
    },
    "stat8_p": {
        "mean1": {
            "p0": 0.13599401397356312,
            "p1": 0.9360739969828297,
            "p2": 1.4278011527084393
        },
        "sigma1": {
            "p0": 0.007869567811499245,
            "p1": 1.7518444905178472,
            "p2": 13.969198501914812
        },
        "norm1": {
            "p0": 0.06292218289950399
        },
        "mean2": {
            "p0": 1.6812259708490316,
            "p1": 0.44845021546427066,
            "p2": -1.420787255704808
        },
        "sigma2": {
            "p0": 0.10185548093559241,
            "p1": 0.9635222930064234,
            "p2": 5.408822384290783
        },
        "norm2": {
            "p0": 0.3851832150286814
        },
        "mean3": {
            "p0": 1.6812259708490316,
            "p1": 0.44845021546427066,
            "p2": -1.420787255704808
        },
        "sigma3": {
            "p0": 0.22933743742945567,
            "p1": 0.7063593072827234,
            "p2": 8.887003142938116
        }
    },
    "stat8_m": {
        "mean1": {
            "p0": 0.13599473714541294,
            "p1": 0.9360789747193063,
            "p2": 1.4278087452896906
        },
        "sigma1": {
            "p0": 0.007683144567000073,
            "p1": 1.7103448120598863,
            "p2": 13.969198462037316
        },
        "norm1": {
            "p0": 0.06291907375825638
        },
        "mean2": {
            "p0": 1.6812258645582396,
            "p1": 0.4484501871122648,
            "p2": -1.4207871658795228
        },
        "sigma2": {
            "p0": 0.10185218216410871,
            "p1": 0.9634910876178192,
            "p2": 5.408822363017653
        },
        "norm2": {
            "p0": 0.3851835727639879
        },
        "mean3": {
            "p0": 1.6812258645582396,
            "p1": 0.4484501871122648,
            "p2": -1.4207871658795228
        },
        "sigma3": {
            "p0": 0.22933305665071574,
            "p1": 0.7063458144842045,
            "p2": 8.88700303498808
        }
    },
    "stat9_p": {
        "mean1": {
            "p0": 0.13599372060841675,
            "p1": 0.9360719776918542,
            "p2": 1.4277980726677675
        },
        "sigma1": {
            "p0": 0.007790947553565427,
            "p1": 1.7343428348991998,
            "p2": 13.969198390661369
        },
        "norm1": {
            "p0": 0.06289272388165437
        },
        "mean2": {
            "p0": 1.6812257588671575,
            "p1": 0.44845015892022555,
            "p2": -1.4207870765610462
        },
        "sigma2": {
            "p0": 0.10129698483464392,
            "p1": 0.9582390874402811,
            "p2": 5.408817535816542
        },
        "norm2": {
            "p0": 0.38521709887118816
        },
        "mean3": {
            "p0": 1.6812257588671575,
            "p1": 0.44845015892022555,
            "p2": -1.4207870765610462
        },
        "sigma3": {
            "p0": 0.22915621532731323,
            "p1": 0.7058011432081248,
            "p2": 8.886998503823131
        }
    },
    "stat9_m": {
        "mean1": {
            "p0": 0.13599503051055928,
            "p1": 0.9360809940102817,
            "p2": 1.427811825330362
        },
        "sigma1": {
            "p0": 0.007761764824933888,
            "p1": 1.7278464676785328,
            "p2": 13.969198573290761
        },
        "norm1": {
            "p0": 0.062948532776106
        },
        "mean2": {
            "p0": 1.6812260765401135,
            "p1": 0.4484502436563098,
            "p2": -1.4207873450232844
        },
        "sigma2": {
            "p0": 0.10241067826505715,
            "p1": 0.9687742931839611,
            "p2": 5.408827211491893
        },
        "norm2": {
            "p0": 0.38514968892148116
        },
        "mean3": {
            "p0": 1.6812260765401135,
            "p1": 0.4484502436563098,
            "p2": -1.4207873450232844
        },
        "sigma3": {
            "p0": 0.22951427875285815,
            "p1": 0.7069039785588032,
            "p2": 8.887007674103065
        }
    }
}