{
    "nGauss": 3,
    "mean1": {
        "nParams": 2,
        "func": "[0] + [1]*x",
        "p0": -0.011451678219076125,
        "p0_err": [
            null,
            null
        ],
        "p1": -0.0013437418982054216,
        "p1_err": [
            null,
            null
        ]
    },
    "sigma1": {
        "nParams": 3,
        "func": "[0]*TMath::Power(x, [1]) + [2]",
        "p0": 0.037966206829927365,
        "p0_err": [
            null,
            null
        ],
        "p1": 1.0712544919132305,
        "p1_err": [
            null,
            null
        ],
        "p2": 12.464961011625574
    },
    "norm1": {
        "nParams": 1,
        "func": "[0]",
        "p0": 0.18623947042529332,
        "p0_err": [
            null,
            null
        ]
    },
    "mean2": {
        "nParams": 2,
        "func": "[0] + [1]*x",
        "p0": -0.011451678219076125,
        "p0_err": [
            null,
            null
        ],
        "p1": -0.0013437418982054216,
        "p1_err": [
            null,
            null
        ]
    },
    "sigma2": {
        "nParams": 3,
        "func": "[0]*TMath::Power(x, [1]) + [2]",
        "p0": 0.09199876357653307,
        "p0_err": [
            null,
            null
        ],
        "p1": 0.6865039736844475,
        "p1_err": [
            null,
            null
        ],
        "p2": 4.129412230105826
    },
    "norm2": {
        "nParams": 1,
        "func": "[0]",
        "p0": 0.12535119837750677,
        "p0_err": [
            null,
            null
        ]
    },
    "mean3": {
        "nParams": 2,
        "func": "[0] + [1]*x",
        "p0": -0.011451678219076125,
        "p0_err": [
            null,
            null
        ],
        "p1": -0.0013437418982054216,
        "p1_err": [
            null,
            null
        ]
    },
    "sigma3": {
        "nParams": 3,
        "func": "[0]*TMath::Power(x, [1]) + [2]",
        "p0": 0.13351878860013647,
        "p0_err": [
            null,
            null
        ],
        "p1": 0.7075294126709831,
        "p1_err": [
            null,
            null
        ],
        "p2": 7.607510953401109
    },
    "nStatVars": 10,
    "stat0_p": {
        "mean1": {
            "p0": -0.011897456908542612,
            "p1": -0.0013165802264090165
        },
        "sigma1": {
            "p0": 0.03771992818132251,
            "p1": 12.151007652118237
        },
        "norm1": {
            "p0": 0.21822247469711148
        },
        "mean2": {
            "p0": -0.011897456908542612,
            "p1": -0.0013165802264090165
        },
        "sigma2": {
            "p0": 0.09089516295483592,
            "p1": 3.800286534499289
        },
        "norm2": {
            "p0": 0.0916909016650301
        },
        "mean3": {
            "p0": -0.011897456908542612,
            "p1": -0.0013165802264090165
        },
        "sigma3": {
            "p0": 0.1330594297927748,
            "p1": 7.362818485049042
        }
    },
    "stat0_m": {
        "mean1": {
            "p0": -0.011005899529609633,
            "p1": -0.0013709035700018306
        },
        "sigma1": {
            "p0": 0.03821248547853222,
            "p1": 12.778914371132911
        },
        "norm1": {
            "p0": 0.15425646615347458
        },
        "mean2": {
            "p0": -0.011005899529609633,
            "p1": -0.0013709035700018306
        },
        "sigma2": {
            "p0": 0.09310236419823037,
            "p1": 4.458537925712363
        },
        "norm2": {
            "p0": 0.159011495089984
        },
        "mean3": {
            "p0": -0.011005899529609633,
            "p1": -0.0013709035700018306
        },
        "sigma3": {
            "p0": 0.13397814740749803,
            "p1": 7.852203421753174
        }
    },
    "stat1_p": {
        "mean1": {
            "p0": -0.01168212149366373,
            "p1": -0.001338561838525974
        },
        "sigma1": {
            "p0": 0.038074091320774286,
            "p1": 12.648260069628963
        },
        "norm1": {
            "p0": 0.17265167988241217
        },
        "mean2": {
            "p0": -0.01168212149366373,
            "p1": -0.001338561838525974
        },
        "sigma2": {
            "p0": 0.09347440939409257,
            "p1": 3.9345337068851425
        },
        "norm2": {
            "p0": 0.11587153155811022
        },
        "mean3": {
            "p0": -0.01168212149366373,
            "p1": -0.001338561838525974
        },
        "sigma3": {
            "p0": 0.1332361338534316,
            "p1": 7.633973811664193
        }
    },
    "stat1_m": {
        "mean1": {
            "p0": -0.011221234944488517,
            "p1": -0.001348921957884873
        },
        "sigma1": {
            "p0": 0.037858322339080444,
            "p1": 12.281661953622182
        },
        "norm1": {
            "p0": 0.19982726096817366
        },
        "mean2": {
            "p0": -0.011221234944488517,
            "p1": -0.001348921957884873
        },
        "sigma2": {
            "p0": 0.09052311775897373,
            "p1": 4.32429075332651
        },
        "norm2": {
            "p0": 0.134830865196904
        },
        "mean3": {
            "p0": -0.011221234944488517,
            "p1": -0.001348921957884873
        },
        "sigma3": {
            "p0": 0.13380144334684121,
            "p1": 7.581048095138023
        }
    },
    "stat2_p": {
        "mean1": {
            "p0": -0.011517693677879916,
            "p1": -0.0013226717959775054
        },
        "sigma1": {
            "p0": 0.03749622207134386,
            "p1": 12.50715988797476
        },
        "norm1": {
            "p0": 0.19057447733307126
        },
        "mean2": {
            "p0": -0.011517693677879916,
            "p1": -0.0013226717959775054
        },
        "sigma2": {
            "p0": 0.08823870502574256,
            "p1": 4.157006761247127
        },
        "norm2": {
            "p0": 0.11719887235960288
        },
        "mean3": {
            "p0": -0.011517693677879916,
            "p1": -0.0013226717959775054
        },
        "sigma3": {
            "p0": 0.1346365686420418,
            "p1": 7.517954825025317
        }
    },
    "stat2_m": {
        "mean1": {
            "p0": -0.01138566276027233,
            "p1": -0.0013648120004333417
        },
        "sigma1": {
            "p0": 0.038436191588510873,
            "p1": 12.422762135276386
        },
        "norm1": {
            "p0": 0.1819044635175146
        },
        "mean2": {
            "p0": -0.01138566276027233,
            "p1": -0.0013648120004333417
        },
        "sigma2": {
            "p0": 0.09575882212732373,
            "p1": 4.101817698964526
        },
        "norm2": {
            "p0": 0.13350352439541155
        },
        "mean3": {
            "p0": -0.01138566276027233,
            "p1": -0.0013648120004333417
        },
        "sigma3": {
            "p0": 0.13240100855823103,
            "p1": 7.697067081776899
        }
    },
    "stat3_p": {
        "mean1": {
            "p0": 0.023653554039233127,
            "p1": -0.002490331633889865
        },
        "sigma1": {
            "p0": 0.03797359942647503,
            "p1": 12.464972883536516
        },
        "norm1": {
            "p0": 0.18623785157846057
        },
        "mean2": {
            "p0": 0.023653554039233127,
            "p1": -0.002490331633889865
        },
        "sigma2": {
            "p0": 0.09205215350992818,
            "p1": 4.129378089440379
        },
        "norm2": {
            "p0": 0.12534697809333314
        },
        "mean3": {
            "p0": 0.023653554039233127,
            "p1": -0.002490331633889865
        },
        "sigma3": {
            "p0": 0.13350314164984625,
            "p1": 7.607477710704081
        }
    },
    "stat3_m": {
        "mean1": {
            "p0": -0.04655691047738538,
            "p1": -0.00019715216252098227
        },
        "sigma1": {
            "p0": 0.037958814233379726,
            "p1": 12.464949139714628
        },
        "norm1": {
            "p0": 0.1862410892721253
        },
        "mean2": {
            "p0": -0.04655691047738538,
            "p1": -0.00019715216252098227
        },
        "sigma2": {
            "p0": 0.0919453736431381,
            "p1": 4.129446370771273
        },
        "norm2": {
            "p0": 0.12535541866168107
        },
        "mean3": {
            "p0": -0.04655691047738538,
            "p1": -0.00019715216252098227
        },
        "sigma3": {
            "p0": 0.13353443555042657,
            "p1": 7.607544196098136
        }
    },
    "stat4_p": {
        "mean1": {
            "p0": -0.011445494127565719,
            "p1": -0.0013350780120803677
        },
        "sigma1": {
            "p0": 0.03827157427731341,
            "p1": 12.464593917830495
        },
        "norm1": {
            "p0": 0.1824255953189457
        },
        "mean2": {
            "p0": -0.011445494127565719,
            "p1": -0.0013350780120803677
        },
        "sigma2": {
            "p0": 0.08796359218148253,
            "p1": 4.129722765365925
        },
        "norm2": {
            "p0": 0.11825155456014577
        },
        "mean3": {
            "p0": -0.011445494127565719,
            "p1": -0.0013350780120803677
        },
        "sigma3": {
            "p0": 0.13331957033307715,
            "p1": 7.608060660282949
        }
    },
    "stat4_m": {
        "mean1": {
            "p0": -0.011457862310586528,
            "p1": -0.0013524057843304794
        },
        "sigma1": {
            "p0": 0.03766083938254132,
            "p1": 12.465328105420648
        },
        "norm1": {
            "p0": 0.19005334553164038
        },
        "mean2": {
            "p0": -0.011457862310586528,
            "p1": -0.0013524057843304794
        },
        "sigma2": {
            "p0": 0.09603393497158375,
            "p1": 4.129101694845727
        },
        "norm2": {
            "p0": 0.13245084219486844
        },
        "mean3": {
            "p0": -0.011457862310586528,
            "p1": -0.0013524057843304794
        },
        "sigma3": {
            "p0": 0.13371800686719568,
            "p1": 7.606961246519266
        }
    },
    "stat5_p": {
        "mean1": {
            "p0": -0.011449629957589602,
            "p1": -0.0013395131770247712
        },
        "sigma1": {
            "p0": 0.03770458161433264,
            "p1": 12.46517137790603
        },
        "norm1": {
            "p0": 0.19076787915905496
        },
        "mean2": {
            "p0": -0.011449629957589602,
            "p1": -0.0013395131770247712
        },
        "sigma2": {
            "p0": 0.09087654039627557,
            "p1": 4.129443750507829
        },
        "norm2": {
            "p0": 0.12359594508324565
        },
        "mean3": {
            "p0": -0.011449629957589602,
            "p1": -0.0013395131770247712
        },
        "sigma3": {
            "p0": 0.13282624479465258,
            "p1": 7.608038617106954
        }
    },
    "stat5_m": {
        "mean1": {
            "p0": -0.011453726480562646,
            "p1": -0.0013479706193860758
        },
        "sigma1": {
            "p0": 0.03822783204552209,
            "p1": 12.464750645345115
        },
        "norm1": {
            "p0": 0.18171106169153112
        },
        "mean2": {
            "p0": -0.011453726480562646,
            "p1": -0.0013479706193860758
        },
        "sigma2": {
            "p0": 0.09312098675679065,
            "p1": 4.129380709703823
        },
        "norm2": {
            "p0": 0.12710645167176873
        },
        "mean3": {
            "p0": -0.011453726480562646,
            "p1": -0.0013479706193860758
        },
        "sigma3": {
            "p0": 0.13421133240562025,
            "p1": 7.606983289695261
        }
    },
    "stat6_p": {
        "mean1": {
            "p0": -0.011458403953886002,
            "p1": -0.0013676953891432035
        },
        "sigma1": {
            "p0": 0.03819058576490471,
            "p1": 12.464966074148071
        },
        "norm1": {
            "p0": 0.1862180277584763
        },
        "mean2": {
            "p0": -0.011458403953886002,
            "p1": -0.0013676953891432035
        },
        "sigma2": {
            "p0": 0.09556291143781398,
            "p1": 4.129550882211179
        },
        "norm2": {
            "p0": 0.12338404605836326
        },
        "mean3": {
            "p0": -0.011458403953886002,
            "p1": -0.0013676953891432035
        },
        "sigma3": {
            "p0": 0.132557734837888,
            "p1": 7.6075712777907984
        }
    },
    "stat6_m": {
        "mean1": {
            "p0": -0.011444952484266245,
            "p1": -0.0013197884072676438
        },
        "sigma1": {
            "p0": 0.037741827894949995,
            "p1": 12.464955949103073
        },
        "norm1": {
            "p0": 0.18626091309210954
        },
        "mean2": {
            "p0": -0.011444952484266245,
            "p1": -0.0013197884072676438
        },
        "sigma2": {
            "p0": 0.0884346157152523,
            "p1": 4.129273578000474
        },
        "norm2": {
            "p0": 0.12731835069665107
        },
        "mean3": {
            "p0": -0.011444952484266245,
            "p1": -0.0013197884072676438
        },
        "sigma3": {
            "p0": 0.13447984236238483,
            "p1": 7.607450629011417
        }
    },
    "stat7_p": {
        "mean1": {
            "p0": -0.011451657179459373,
            "p1": -0.0013421048270034713
        },
        "sigma1": {
            "p0": 0.038498889092527425,
            "p1": 12.46496372761113
        },
        "norm1": {
            "p0": 0.18629667025515356
        },
        "mean2": {
            "p0": -0.011451657179459373,
            "p1": -0.0013421048270034713
        },
        "sigma2": {
            "p0": 0.09201079372177823,
            "p1": 4.129412585113275
        },
        "norm2": {
            "p0": 0.12533095519823867
        },
        "mean3": {
            "p0": -0.011451657179459373,
            "p1": -0.0013421048270034713
        },
        "sigma3": {
            "p0": 0.13372828682264004,
            "p1": 7.607516268703446
        }
    },
    "stat7_m": {
        "mean1": {
            "p0": -0.011451699258692874,
            "p1": -0.001345378969407376
        },
        "sigma1": {
            "p0": 0.037433524567327334,
            "p1": 12.464958295640015
        },
        "norm1": {
            "p0": 0.18618227059543227
        },
        "mean2": {
            "p0": -0.011451699258692874,
            "p1": -0.001345378969407376
        },
        "sigma2": {
            "p0": 0.09198673343128805,
            "p1": 4.129411875098378
        },
        "norm2": {
            "p0": 0.12537144155677563
        },
        "mean3": {
            "p0": -0.011451699258692874,
            "p1": -0.001345378969407376
        },
        "sigma3": {
            "p0": 0.13330929037763278,
            "p1": 7.607505638098769
        }
    },
    "stat8_p": {
        "mean1": {
            "p0": -0.011448749622232832,
            "p1": -0.00126296871494109
        },
        "sigma1": {
            "p0": 0.03751247377955386,
            "p1": 12.46495975414407
        },
        "norm1": {
            "p0": 0.18634214814973704
        },
        "mean2": {
            "p0": -0.011448749622232832,
            "p1": -0.00126296871494109
        },
        "sigma2": {
            "p0": 0.09220184755208434,
            "p1": 4.129418754206159
        },
        "norm2": {
            "p0": 0.1251335328648014
        },
        "mean3": {
            "p0": -0.011448749622232832,
            "p1": -0.00126296871494109
        },
        "sigma3": {
            "p0": 0.13461026672200407,
            "p1": 7.60754464997902
        }
    },
    "stat8_m": {
        "mean1": {
            "p0": -0.011454606815919413,
            "p1": -0.001424515081469757
        },
        "sigma1": {
            "p0": 0.03841993988030089,
            "p1": 12.464962269107074
        },
        "norm1": {
            "p0": 0.18613679270084882
        },
        "mean2": {
            "p0": -0.011454606815919413,
            "p1": -0.001424515081469757
        },
        "sigma2": {
            "p0": 0.09179567960098194,
            "p1": 4.129405706005493
        },
        "norm2": {
            "p0": 0.12556886389021293
        },
        "mean3": {
            "p0": -0.011454606815919413,
            "p1": -0.001424515081469757
        },
        "sigma3": {
            "p0": 0.13242731047826875,
            "p1": 7.607477256823197
        }
    },
    "stat9_p": {
        "mean1": {
            "p0": -0.011414651687519135,
            "p1": -0.00020924426055995765
        },
        "sigma1": {
            "p0": 0.03799137162880849,
            "p1": 12.46496102478776
        },
        "norm1": {
            "p0": 0.18623242170389592
        },
        "mean2": {
            "p0": -0.011414651687519135,
            "p1": -0.00020924426055995765
        },
        "sigma2": {
            "p0": 0.09199256003855866,
            "p1": 4.129411956073155
        },
        "norm2": {
            "p0": 0.1253627918854509
        },
        "mean3": {
            "p0": -0.011414651687519135,
            "p1": -0.00020924426055995765
        },
        "sigma3": {
            "p0": 0.13344938552377403,
            "p1": 7.607508980383617
        }
    },
    "stat9_m": {
        "mean1": {
            "p0": -0.011488704750633112,
            "p1": -0.0024782395358508894
        },
        "sigma1": {
            "p0": 0.03794104203104623,
            "p1": 12.464960998463384
        },
        "norm1": {
            "p0": 0.1862465191466899
        },
        "mean2": {
            "p0": -0.011488704750633112,
            "p1": -0.0024782395358508894
        },
        "sigma2": {
            "p0": 0.09200496711450762,
            "p1": 4.129412504138497
        },
        "norm2": {
            "p0": 0.12533960486956344
        },
        "mean3": {
            "p0": -0.011488704750633112,
            "p1": -0.0024782395358508894
        },
        "sigma3": {
            "p0": 0.13358819167649885,
            "p1": 7.6075129264185986
        }
    }
}